------------------
System Information
------------------
      Time of this report: 10/11/2019, 23:50:52
             Machine name: DESKTOP-PPJCNC6
               Machine Id: {FBF77330-7090-4FAC-A944-0B7C2C237BBC}
         Operating System: Windows 10 Education 64-bit (10.0, Build 17134) (17134.rs4_release.180410-1804)
                 Language: English (Regional Setting: English)
      System Manufacturer: System manufacturer
             System Model: System Product Name
                     BIOS: 0612 (type: UEFI)
                Processor: Intel(R) Core(TM) i5-8600K CPU @ 3.60GHz (6 CPUs), ~3.6GHz
                   Memory: 32768MB RAM
      Available OS Memory: 32696MB RAM
                Page File: 25460MB used, 12098MB available
              Windows Dir: C:\Windows
          DirectX Version: DirectX 12
      DX Setup Parameters: Not found
         User DPI Setting: 96 DPI (100 percent)
       System DPI Setting: 96 DPI (100 percent)
          DWM DPI Scaling: Disabled
                 Miracast: Available, with HDCP
Microsoft Graphics Hybrid: Not Supported
           DxDiag Version: 10.00.17134.0001 64bit Unicode

------------
DxDiag Notes
------------
      Display Tab 1: No problems found.
        Sound Tab 1: No problems found.
        Sound Tab 2: No problems found.
        Sound Tab 3: No problems found.
          Input Tab: No problems found.

--------------------
DirectX Debug Levels
--------------------
Direct3D:    0/4 (retail)
DirectDraw:  0/4 (retail)
DirectInput: 0/5 (retail)
DirectMusic: 0/5 (retail)
DirectPlay:  0/9 (retail)
DirectSound: 0/5 (retail)
DirectShow:  0/6 (retail)

---------------
Display Devices
---------------
           Card name: NVIDIA GeForce GTX 1080
        Manufacturer: NVIDIA
           Chip type: GeForce GTX 1080
            DAC type: Integrated RAMDAC
         Device Type: Full Device (POST)
          Device Key: Enum\PCI\VEN_10DE&DEV_1B80&SUBSYS_37171458&REV_A1
       Device Status: 0180200A [DN_DRIVER_LOADED|DN_STARTED|DN_DISABLEABLE|DN_NT_ENUMERATOR|DN_NT_DRIVER] 
 Device Problem Code: No Problem
 Driver Problem Code: Unknown
      Display Memory: 24426 MB
    Dedicated Memory: 8079 MB
       Shared Memory: 16347 MB
        Current Mode: 2560 x 1440 (32 bit) (144Hz)
         HDR Support: Not Supported
    Display Topology: Internal
 Display Color Space: DXGI_COLOR_SPACE_RGB_FULL_G22_NONE_P709
     Color Primaries: Red(0.640148,0.330578), Green(0.300305,0.600109), Blue(0.150891,0.060070), White Point(0.313000,0.329602)
   Display Luminance: Min Luminance = 0.500000, Max Luminance = 270.000000, MaxFullFrameLuminance = 270.000000
        Monitor Name: Dell S2716DG(DisplayPort)
       Monitor Model: Dell S2716DG
          Monitor Id: DELA0D1
         Native Mode: 2560 x 1440(p) (59.951Hz)
         Output Type: Displayport External
Monitor Capabilities: HDR Not Supported
Display Pixel Format: DISPLAYCONFIG_PIXELFORMAT_32BPP
      Advanced Color: Not Supported
         Driver Name: C:\Windows\System32\DriverStore\FileRepository\nv_dispi.inf_amd64_830a0263f2ee97ce\nvldumdx.dll,C:\Windows\System32\DriverStore\FileRepository\nv_dispi.inf_amd64_830a0263f2ee97ce\nvldumdx.dll,C:\Windows\System32\DriverStore\FileRepository\nv_dispi.inf_amd64_830a0263f2ee97ce\nvldumdx.dll,C:\Windows\System32\DriverStore\FileRepository\nv_dispi.inf_amd64_830a0263f2ee97ce\nvldumdx.dll
 Driver File Version: 26.21.0014.3630 (English)
      Driver Version: 26.21.14.3630
         DDI Version: 12
      Feature Levels: 12_1,12_0,11_1,11_0,10_1,10_0,9_3,9_2,9_1
        Driver Model: WDDM 2.4
 Graphics Preemption: Pixel
  Compute Preemption: Dispatch
            Miracast: Not Supported
 Hybrid Graphics GPU: Not Supported
      Power P-states: Not Supported
      Virtualization: Paravirtualization 
          Block List: No Blocks
  Catalog Attributes: Universal:False Declarative:False 
   Driver Attributes: Final Retail
    Driver Date/Size: 9/4/2019 8:00:00 PM, 961896 bytes
         WHQL Logo'd: n/a
     WHQL Date Stamp: n/a
   Device Identifier: {D7B71E3E-58C0-11CF-C679-19171BC2D735}
           Vendor ID: 0x10DE
           Device ID: 0x1B80
           SubSys ID: 0x37171458
         Revision ID: 0x00A1
  Driver Strong Name: oem58.inf:0f066de361856a84:Section094:26.21.14.3630:pci\ven_10de&dev_1b80
      Rank Of Driver: 00D12001
         Video Accel: 
         DXVA2 Modes: DXVA2_ModeMPEG2_VLD  DXVA2_ModeVC1_D2010  DXVA2_ModeVC1_VLD  DXVA2_ModeH264_VLD_Stereo_Progressive_NoFGT  DXVA2_ModeH264_VLD_Stereo_NoFGT  DXVA2_ModeH264_VLD_NoFGT  DXVA2_ModeHEVC_VLD_Main  DXVA2_ModeHEVC_VLD_Main10  DXVA2_ModeMPEG4pt2_VLD_Simple  DXVA2_ModeMPEG4pt2_VLD_AdvSimple_NoGMC  DXVA2_ModeVP9_VLD_Profile0  
   Deinterlace Caps: {6CB69578-7617-4637-91E5-1C02DB810285}: Format(In/Out)=(YUY2,YUY2) Frames(Prev/Fwd/Back)=(0,0,0) Caps=VideoProcess_YUV2RGB VideoProcess_StretchX VideoProcess_StretchY DeinterlaceTech_PixelAdaptive 
                     {F9F19DA5-3B09-4B2F-9D89-C64753E3EAAB}: Format(In/Out)=(YUY2,YUY2) Frames(Prev/Fwd/Back)=(0,0,0) Caps=VideoProcess_YUV2RGB VideoProcess_StretchX VideoProcess_StretchY 
                     {5A54A0C9-C7EC-4BD9-8EDE-F3C75DC4393B}: Format(In/Out)=(YUY2,YUY2) Frames(Prev/Fwd/Back)=(0,0,0) Caps=VideoProcess_YUV2RGB VideoProcess_StretchX VideoProcess_StretchY 
                     {335AA36E-7884-43A4-9C91-7F87FAF3E37E}: Format(In/Out)=(YUY2,YUY2) Frames(Prev/Fwd/Back)=(0,0,0) Caps=VideoProcess_YUV2RGB VideoProcess_StretchX VideoProcess_StretchY DeinterlaceTech_BOBVerticalStretch 
                     {6CB69578-7617-4637-91E5-1C02DB810285}: Format(In/Out)=(UYVY,UYVY) Frames(Prev/Fwd/Back)=(0,0,0) Caps=VideoProcess_YUV2RGB VideoProcess_StretchX VideoProcess_StretchY DeinterlaceTech_PixelAdaptive 
                     {F9F19DA5-3B09-4B2F-9D89-C64753E3EAAB}: Format(In/Out)=(UYVY,UYVY) Frames(Prev/Fwd/Back)=(0,0,0) Caps=VideoProcess_YUV2RGB VideoProcess_StretchX VideoProcess_StretchY 
                     {5A54A0C9-C7EC-4BD9-8EDE-F3C75DC4393B}: Format(In/Out)=(UYVY,UYVY) Frames(Prev/Fwd/Back)=(0,0,0) Caps=VideoProcess_YUV2RGB VideoProcess_StretchX VideoProcess_StretchY 
                     {335AA36E-7884-43A4-9C91-7F87FAF3E37E}: Format(In/Out)=(UYVY,UYVY) Frames(Prev/Fwd/Back)=(0,0,0) Caps=VideoProcess_YUV2RGB VideoProcess_StretchX VideoProcess_StretchY DeinterlaceTech_BOBVerticalStretch 
                     {6CB69578-7617-4637-91E5-1C02DB810285}: Format(In/Out)=(YV12,0x32315659) Frames(Prev/Fwd/Back)=(0,0,0) Caps=VideoProcess_YUV2RGB VideoProcess_StretchX VideoProcess_StretchY DeinterlaceTech_PixelAdaptive 
                     {F9F19DA5-3B09-4B2F-9D89-C64753E3EAAB}: Format(In/Out)=(YV12,0x32315659) Frames(Prev/Fwd/Back)=(0,0,0) Caps=VideoProcess_YUV2RGB VideoProcess_StretchX VideoProcess_StretchY 
                     {5A54A0C9-C7EC-4BD9-8EDE-F3C75DC4393B}: Format(In/Out)=(YV12,0x32315659) Frames(Prev/Fwd/Back)=(0,0,0) Caps=VideoProcess_YUV2RGB VideoProcess_StretchX VideoProcess_StretchY 
                     {335AA36E-7884-43A4-9C91-7F87FAF3E37E}: Format(In/Out)=(YV12,0x32315659) Frames(Prev/Fwd/Back)=(0,0,0) Caps=VideoProcess_YUV2RGB VideoProcess_StretchX VideoProcess_StretchY DeinterlaceTech_BOBVerticalStretch 
                     {6CB69578-7617-4637-91E5-1C02DB810285}: Format(In/Out)=(NV12,0x3231564e) Frames(Prev/Fwd/Back)=(0,0,0) Caps=VideoProcess_YUV2RGB VideoProcess_StretchX VideoProcess_StretchY DeinterlaceTech_PixelAdaptive 
                     {F9F19DA5-3B09-4B2F-9D89-C64753E3EAAB}: Format(In/Out)=(NV12,0x3231564e) Frames(Prev/Fwd/Back)=(0,0,0) Caps=VideoProcess_YUV2RGB VideoProcess_StretchX VideoProcess_StretchY 
                     {5A54A0C9-C7EC-4BD9-8EDE-F3C75DC4393B}: Format(In/Out)=(NV12,0x3231564e) Frames(Prev/Fwd/Back)=(0,0,0) Caps=VideoProcess_YUV2RGB VideoProcess_StretchX VideoProcess_StretchY 
                     {335AA36E-7884-43A4-9C91-7F87FAF3E37E}: Format(In/Out)=(NV12,0x3231564e) Frames(Prev/Fwd/Back)=(0,0,0) Caps=VideoProcess_YUV2RGB VideoProcess_StretchX VideoProcess_StretchY DeinterlaceTech_BOBVerticalStretch 
                     {6CB69578-7617-4637-91E5-1C02DB810285}: Format(In/Out)=(IMC1,UNKNOWN) Frames(Prev/Fwd/Back)=(0,0,0) Caps=
                     {F9F19DA5-3B09-4B2F-9D89-C64753E3EAAB}: Format(In/Out)=(IMC1,UNKNOWN) Frames(Prev/Fwd/Back)=(0,0,0) Caps=
                     {5A54A0C9-C7EC-4BD9-8EDE-F3C75DC4393B}: Format(In/Out)=(IMC1,UNKNOWN) Frames(Prev/Fwd/Back)=(0,0,0) Caps=
                     {335AA36E-7884-43A4-9C91-7F87FAF3E37E}: Format(In/Out)=(IMC1,UNKNOWN) Frames(Prev/Fwd/Back)=(0,0,0) Caps=
                     {6CB69578-7617-4637-91E5-1C02DB810285}: Format(In/Out)=(IMC2,UNKNOWN) Frames(Prev/Fwd/Back)=(0,0,0) Caps=
                     {F9F19DA5-3B09-4B2F-9D89-C64753E3EAAB}: Format(In/Out)=(IMC2,UNKNOWN) Frames(Prev/Fwd/Back)=(0,0,0) Caps=
                     {5A54A0C9-C7EC-4BD9-8EDE-F3C75DC4393B}: Format(In/Out)=(IMC2,UNKNOWN) Frames(Prev/Fwd/Back)=(0,0,0) Caps=
                     {335AA36E-7884-43A4-9C91-7F87FAF3E37E}: Format(In/Out)=(IMC2,UNKNOWN) Frames(Prev/Fwd/Back)=(0,0,0) Caps=
                     {6CB69578-7617-4637-91E5-1C02DB810285}: Format(In/Out)=(IMC3,UNKNOWN) Frames(Prev/Fwd/Back)=(0,0,0) Caps=
                     {F9F19DA5-3B09-4B2F-9D89-C64753E3EAAB}: Format(In/Out)=(IMC3,UNKNOWN) Frames(Prev/Fwd/Back)=(0,0,0) Caps=
                     {5A54A0C9-C7EC-4BD9-8EDE-F3C75DC4393B}: Format(In/Out)=(IMC3,UNKNOWN) Frames(Prev/Fwd/Back)=(0,0,0) Caps=
                     {335AA36E-7884-43A4-9C91-7F87FAF3E37E}: Format(In/Out)=(IMC3,UNKNOWN) Frames(Prev/Fwd/Back)=(0,0,0) Caps=
                     {6CB69578-7617-4637-91E5-1C02DB810285}: Format(In/Out)=(IMC4,UNKNOWN) Frames(Prev/Fwd/Back)=(0,0,0) Caps=
                     {F9F19DA5-3B09-4B2F-9D89-C64753E3EAAB}: Format(In/Out)=(IMC4,UNKNOWN) Frames(Prev/Fwd/Back)=(0,0,0) Caps=
                     {5A54A0C9-C7EC-4BD9-8EDE-F3C75DC4393B}: Format(In/Out)=(IMC4,UNKNOWN) Frames(Prev/Fwd/Back)=(0,0,0) Caps=
                     {335AA36E-7884-43A4-9C91-7F87FAF3E37E}: Format(In/Out)=(IMC4,UNKNOWN) Frames(Prev/Fwd/Back)=(0,0,0) Caps=
                     {6CB69578-7617-4637-91E5-1C02DB810285}: Format(In/Out)=(S340,UNKNOWN) Frames(Prev/Fwd/Back)=(0,0,0) Caps=
                     {F9F19DA5-3B09-4B2F-9D89-C64753E3EAAB}: Format(In/Out)=(S340,UNKNOWN) Frames(Prev/Fwd/Back)=(0,0,0) Caps=
                     {5A54A0C9-C7EC-4BD9-8EDE-F3C75DC4393B}: Format(In/Out)=(S340,UNKNOWN) Frames(Prev/Fwd/Back)=(0,0,0) Caps=
                     {335AA36E-7884-43A4-9C91-7F87FAF3E37E}: Format(In/Out)=(S340,UNKNOWN) Frames(Prev/Fwd/Back)=(0,0,0) Caps=
                     {6CB69578-7617-4637-91E5-1C02DB810285}: Format(In/Out)=(S342,UNKNOWN) Frames(Prev/Fwd/Back)=(0,0,0) Caps=
                     {F9F19DA5-3B09-4B2F-9D89-C64753E3EAAB}: Format(In/Out)=(S342,UNKNOWN) Frames(Prev/Fwd/Back)=(0,0,0) Caps=
                     {5A54A0C9-C7EC-4BD9-8EDE-F3C75DC4393B}: Format(In/Out)=(S342,UNKNOWN) Frames(Prev/Fwd/Back)=(0,0,0) Caps=
                     {335AA36E-7884-43A4-9C91-7F87FAF3E37E}: Format(In/Out)=(S342,UNKNOWN) Frames(Prev/Fwd/Back)=(0,0,0) Caps=
        D3D9 Overlay: Supported
             DXVA-HD: Supported
        DDraw Status: Enabled
          D3D Status: Enabled
          AGP Status: Enabled
       MPO MaxPlanes: 1
            MPO Caps: Not Supported
         MPO Stretch: Not Supported
     MPO Media Hints: Not Supported
         MPO Formats: Not Supported
    PanelFitter Caps: Not Supported
 PanelFitter Stretch: Not Supported

-------------
Sound Devices
-------------
            Description: Speakers (3- USB  AUDIO  )
 Default Sound Playback: Yes
 Default Voice Playback: Yes
            Hardware ID: USB\VID_1130&PID_1620&REV_0187&MI_00
        Manufacturer ID: 65535
             Product ID: 65535
                   Type: WDM
            Driver Name: USBAUDIO.sys
         Driver Version: 10.00.17134.0001 (English)
      Driver Attributes: Final Retail
            WHQL Logo'd: n/a
          Date and Size: 4/11/2018 12:00:00 AM, 151552 bytes
            Other Files: 
        Driver Provider: Microsoft
         HW Accel Level: Basic
              Cap Flags: 0x0
    Min/Max Sample Rate: 0, 0
Static/Strm HW Mix Bufs: 0, 0
 Static/Strm HW 3D Bufs: 0, 0
              HW Memory: 0
       Voice Management: No
 EAX(tm) 2.0 Listen/Src: No, No
   I3DL2(tm) Listen/Src: No, No
Sensaura(tm) ZoomFX(tm): No

            Description: Realtek Digital Output (Realtek High Definition Audio)
 Default Sound Playback: No
 Default Voice Playback: No
            Hardware ID: HDAUDIO\FUNC_01&VEN_10EC&DEV_0887&SUBSYS_10438760&REV_1003
        Manufacturer ID: 1
             Product ID: 100
                   Type: WDM
            Driver Name: RTKVHD64.sys
         Driver Version: 6.00.0001.8339 (English)
      Driver Attributes: Final Retail
            WHQL Logo'd: n/a
          Date and Size: 1/2/2018 12:00:00 AM, 6105024 bytes
            Other Files: 
        Driver Provider: Realtek Semiconductor Corp.
         HW Accel Level: Basic
              Cap Flags: 0x0
    Min/Max Sample Rate: 0, 0
Static/Strm HW Mix Bufs: 0, 0
 Static/Strm HW 3D Bufs: 0, 0
              HW Memory: 0
       Voice Management: No
 EAX(tm) 2.0 Listen/Src: No, No
   I3DL2(tm) Listen/Src: No, No
Sensaura(tm) ZoomFX(tm): No

            Description: Dell S2716DG (NVIDIA High Definition Audio)
 Default Sound Playback: No
 Default Voice Playback: No
            Hardware ID: HDAUDIO\FUNC_01&VEN_10DE&DEV_0083&SUBSYS_14583717&REV_1001
        Manufacturer ID: 1
             Product ID: 100
                   Type: WDM
            Driver Name: nvhda64v.sys
         Driver Version: 1.03.0038.0021 (English)
      Driver Attributes: Final Retail
            WHQL Logo'd: n/a
          Date and Size: 6/21/2019 12:00:00 AM, 228792 bytes
            Other Files: 
        Driver Provider: NVIDIA Corporation
         HW Accel Level: Basic
              Cap Flags: 0x0
    Min/Max Sample Rate: 0, 0
Static/Strm HW Mix Bufs: 0, 0
 Static/Strm HW 3D Bufs: 0, 0
              HW Memory: 0
       Voice Management: No
 EAX(tm) 2.0 Listen/Src: No, No
   I3DL2(tm) Listen/Src: No, No
Sensaura(tm) ZoomFX(tm): No

---------------------
Sound Capture Devices
---------------------
---------------------
Video Capture Devices
Number of Devices: 0
---------------------
-------------------
DirectInput Devices
-------------------
      Device Name: Mouse
         Attached: 1
    Controller ID: n/a
Vendor/Product ID: n/a
        FF Driver: n/a

      Device Name: Keyboard
         Attached: 1
    Controller ID: n/a
Vendor/Product ID: n/a
        FF Driver: n/a

      Device Name: Gaming Mouse G502
         Attached: 1
    Controller ID: 0x0
Vendor/Product ID: 0x046D, 0xC07D
        FF Driver: n/a

      Device Name: SteelSeries Arctis 7 Bootloader
         Attached: 1
    Controller ID: 0x0
Vendor/Product ID: 0x1038, 0x1261
        FF Driver: n/a

      Device Name: USB KEYBOARD
         Attached: 1
    Controller ID: 0x0
Vendor/Product ID: 0x258A, 0x1006
        FF Driver: n/a

      Device Name: USB  AUDIO  
         Attached: 1
    Controller ID: 0x0
Vendor/Product ID: 0x1130, 0x1620
        FF Driver: n/a

      Device Name: USB KEYBOARD
         Attached: 1
    Controller ID: 0x0
Vendor/Product ID: 0x258A, 0x1006
        FF Driver: n/a

      Device Name: USB KEYBOARD
         Attached: 1
    Controller ID: 0x0
Vendor/Product ID: 0x258A, 0x1006
        FF Driver: n/a

      Device Name: Gaming Mouse G502
         Attached: 1
    Controller ID: 0x0
Vendor/Product ID: 0x046D, 0xC07D
        FF Driver: n/a

      Device Name: Gaming Mouse G502
         Attached: 1
    Controller ID: 0x0
Vendor/Product ID: 0x046D, 0xC07D
        FF Driver: n/a

      Device Name: Gaming Mouse G502
         Attached: 1
    Controller ID: 0x0
Vendor/Product ID: 0x046D, 0xC07D
        FF Driver: n/a

Poll w/ Interrupt: No

-----------
USB Devices
-----------
+ ASMedia USB Root Hub
| Vendor/Product ID: 0x1B21, 0x1242
| Matching Device ID: USB\ASMEDIAROOT_Hub&VID1B21&PID1242&VER01165001
| Service: asmthub3
| Driver: asmthub3.sys, 11/14/2017 03:33:44, 155504 bytes
| 
+-+ Generic USB Hub
| | Vendor/Product ID: 0x0451, 0x8142
| | Location: Port_#0004.Hub_#0001
| | Matching Device ID: USB\ASMEDIAUSBD_Hub&VER01165001
| | Service: asmthub3
| | Driver: asmthub3.sys, 11/14/2017 03:33:44, 155504 bytes
| | 
| +-+ USB Composite Device
| | | Vendor/Product ID: 0x046D, 0xC07D
| | | Location: Port_#0003.Hub_#0003
| | | Matching Device ID: USB\COMPOSITE
| | | Service: usbccgp
| | | Driver: usbccgp.sys, 4/11/2018 19:33:52, 168864 bytes
| | | 
| | +-+ USB Input Device
| | | | Vendor/Product ID: 0x046D, 0xC07D
| | | | Location: 0004.0000.0000.003.004.003.000.000.000
| | | | Matching Device ID: USB\Class_03&SubClass_01
| | | | Service: HidUsb
| | | | Driver: hidusb.sys, 4/11/2018 19:33:52, 42496 bytes
| | | | Driver: hidclass.sys, 4/11/2018 19:33:52, 173568 bytes
| | | | Driver: hidparse.sys, 3/6/2019 04:33:02, 46080 bytes
| | | | 
| | | +-+ HID-compliant mouse
| | | | | Vendor/Product ID: 0x046D, 0xC07D
| | | | | Matching Device ID: HID_DEVICE_SYSTEM_MOUSE
| | | | | Service: mouhid
| | | | | Driver: mouhid.sys, 4/11/2018 19:33:52, 33280 bytes
| | | | | Driver: mouclass.sys, 4/11/2018 19:33:52, 56728 bytes
| | | | 
| | +-+ USB Input Device
| | | | Vendor/Product ID: 0x046D, 0xC07D
| | | | Location: 0004.0000.0000.003.004.003.000.000.000
| | | | Matching Device ID: USB\Class_03
| | | | Service: HidUsb
| | | | Driver: hidusb.sys, 4/11/2018 19:33:52, 42496 bytes
| | | | Driver: hidclass.sys, 4/11/2018 19:33:52, 173568 bytes
| | | | Driver: hidparse.sys, 3/6/2019 04:33:02, 46080 bytes
| | | | 
| | | +-+ HID Keyboard Device
| | | | | Vendor/Product ID: 0x046D, 0xC07D
| | | | | Matching Device ID: HID_DEVICE_SYSTEM_KEYBOARD
| | | | | Service: kbdhid
| | | | | Driver: kbdhid.sys, 4/11/2018 19:33:52, 40448 bytes
| | | | | Driver: kbdclass.sys, 4/11/2018 19:33:52, 63904 bytes
| 
+ USB Root Hub (USB 3.0)
| Vendor/Product ID: 0x8086, 0xA2AF
| Matching Device ID: USB\ROOT_HUB30
| Service: USBHUB3
| Driver: USBHUB3.SYS, 11/8/2018 22:49:37, 565048 bytes
| 
+-+ USB Composite Device
| | Vendor/Product ID: 0x258A, 0x1006
| | Location: Port_#0006.Hub_#0001
| | Matching Device ID: USB\COMPOSITE
| | Service: usbccgp
| | Driver: usbccgp.sys, 4/11/2018 19:33:52, 168864 bytes
| | 
| +-+ USB Input Device
| | | Vendor/Product ID: 0x258A, 0x1006
| | | Location: 0000.0014.0000.006.000.000.000.000.000
| | | Matching Device ID: USB\Class_03&SubClass_01
| | | Service: HidUsb
| | | Driver: hidusb.sys, 4/11/2018 19:33:52, 42496 bytes
| | | Driver: hidclass.sys, 4/11/2018 19:33:52, 173568 bytes
| | | Driver: hidparse.sys, 3/6/2019 04:33:02, 46080 bytes
| | | 
| | +-+ HID Keyboard Device
| | | | Vendor/Product ID: 0x258A, 0x1006
| | | | Matching Device ID: HID_DEVICE_SYSTEM_KEYBOARD
| | | | Service: kbdhid
| | | | Driver: kbdhid.sys, 4/11/2018 19:33:52, 40448 bytes
| | | | Driver: kbdclass.sys, 4/11/2018 19:33:52, 63904 bytes
| | | 
| +-+ USB Input Device
| | | Vendor/Product ID: 0x258A, 0x1006
| | | Location: 0000.0014.0000.006.000.000.000.000.000
| | | Matching Device ID: USB\Class_03
| | | Service: HidUsb
| | | Driver: hidusb.sys, 4/11/2018 19:33:52, 42496 bytes
| | | Driver: hidclass.sys, 4/11/2018 19:33:52, 173568 bytes
| | | Driver: hidparse.sys, 3/6/2019 04:33:02, 46080 bytes
| | | 
| | +-+ HID Keyboard Device
| | | | Vendor/Product ID: 0x258A, 0x1006
| | | | Matching Device ID: HID_DEVICE_SYSTEM_KEYBOARD
| | | | Service: kbdhid
| | | | Driver: kbdhid.sys, 4/11/2018 19:33:52, 40448 bytes
| | | | Driver: kbdclass.sys, 4/11/2018 19:33:52, 63904 bytes
| | | | 
| | +-+ HID Keyboard Device
| | | | Vendor/Product ID: 0x258A, 0x1006
| | | | Matching Device ID: HID_DEVICE_SYSTEM_KEYBOARD
| | | | Service: kbdhid
| | | | Driver: kbdhid.sys, 4/11/2018 19:33:52, 40448 bytes
| | | | Driver: kbdclass.sys, 4/11/2018 19:33:52, 63904 bytes
| | | | 
| | +-+ HID Keyboard Device
| | | | Vendor/Product ID: 0x258A, 0x1006
| | | | Matching Device ID: HID_DEVICE_SYSTEM_KEYBOARD
| | | | Service: kbdhid
| | | | Driver: kbdhid.sys, 4/11/2018 19:33:52, 40448 bytes
| | | | Driver: kbdclass.sys, 4/11/2018 19:33:52, 63904 bytes

----------------
Gameport Devices
----------------

------------
PS/2 Devices
------------

------------------------
Disk & DVD/CD-ROM Drives
------------------------
      Drive: C:
 Free Space: 14.2 GB
Total Space: 243.6 GB
File System: NTFS
      Model: Samsung SSD 850 PRO 256GB

      Drive: E:
 Free Space: 987.1 GB
Total Space: 1907.7 GB
File System: NTFS
      Model: WDC WD2003FZEX-00SRLA0

      Drive: D:
      Model: ASUS DRW-24F1ST   d
     Driver: c:\windows\system32\drivers\cdrom.sys, 10.00.17134.0137 (English), 6/15/2018 00:36:47, 159744 bytes

--------------
System Devices
--------------
     Name: Intel(R) PMC - A2A1
Device ID: PCI\VEN_8086&DEV_A2A1&SUBSYS_86941043&REV_00\3&11583659&0&FA
   Driver: n/a

     Name: Intel(R) PCI Express Root Port #17 - A2E7
Device ID: PCI\VEN_8086&DEV_A2E7&SUBSYS_86941043&REV_F0\3&11583659&0&D8
   Driver: C:\Windows\system32\DRIVERS\pci.sys, 10.00.17134.1067 (English), 10/2/2019 01:19:52, 374584 bytes

     Name: Intel(R) 300 Series Chipset Family SATA AHCI Controller
Device ID: PCI\VEN_8086&DEV_A282&SUBSYS_86941043&REV_00\3&11583659&0&B8
   Driver: C:\Windows\system32\DRIVERS\iaStorA.sys, 15.09.0000.1015 (English), 10/16/2017 05:08:00, 906240 bytes

     Name: Intel(R) PCI Express Root Port #3 - A292
Device ID: PCI\VEN_8086&DEV_A292&SUBSYS_86941043&REV_F0\3&11583659&0&E2
   Driver: C:\Windows\system32\DRIVERS\pci.sys, 10.00.17134.1067 (English), 10/2/2019 01:19:52, 374584 bytes

     Name: Intel(R) 300 Series Chipset Family LPC Controller (Z370) - A2C9
Device ID: PCI\VEN_8086&DEV_A2C9&SUBSYS_86941043&REV_00\3&11583659&0&F8
   Driver: C:\Windows\system32\DRIVERS\msisadrv.sys, 10.00.17134.0001 (English), 4/11/2018 19:33:49, 18848 bytes

     Name: High Definition Audio Controller
Device ID: PCI\VEN_8086&DEV_A2F0&SUBSYS_87601043&REV_00\3&11583659&0&FB
   Driver: C:\Windows\system32\DRIVERS\hdaudbus.sys, 10.00.17134.0001 (English), 4/11/2018 19:33:45, 86016 bytes
   Driver: C:\Windows\system32\DRIVERS\drmk.sys, 10.00.17134.0001 (English), 4/11/2018 19:33:46, 98304 bytes
   Driver: C:\Windows\system32\DRIVERS\portcls.sys, 10.00.17134.0001 (English), 4/11/2018 19:33:46, 379392 bytes

     Name: Intel(R) PCI Express Root Port #9 - A298
Device ID: PCI\VEN_8086&DEV_A298&SUBSYS_86941043&REV_F0\3&11583659&0&E8
   Driver: C:\Windows\system32\DRIVERS\pci.sys, 10.00.17134.1067 (English), 10/2/2019 01:19:52, 374584 bytes

     Name: ASMedia USB3.1 eXtensible Host Controller
Device ID: PCI\VEN_1B21&DEV_1242&SUBSYS_86751043&REV_00\4&572C584&0&00E2
   Driver: C:\Windows\system32\DRIVERS\asmtxhci.sys, 1.16.0050.0001 (English), 11/14/2017 03:33:48, 466296 bytes

     Name: Intel(R) PCI Express Root Port #1 - A290
Device ID: PCI\VEN_8086&DEV_A290&SUBSYS_86941043&REV_F0\3&11583659&0&E0
   Driver: C:\Windows\system32\DRIVERS\pci.sys, 10.00.17134.1067 (English), 10/2/2019 01:19:52, 374584 bytes

     Name: Intel(R) PCI Express Root Port #21 - A2EB
Device ID: PCI\VEN_8086&DEV_A2EB&SUBSYS_00000000&REV_F0\3&11583659&0&DC
   Driver: C:\Windows\system32\DRIVERS\pci.sys, 10.00.17134.1067 (English), 10/2/2019 01:19:52, 374584 bytes

     Name: High Definition Audio Controller
Device ID: PCI\VEN_10DE&DEV_10F0&SUBSYS_37171458&REV_A1\4&798C2C0&0&01DC
   Driver: C:\Windows\system32\DRIVERS\hdaudbus.sys, 10.00.17134.0001 (English), 4/11/2018 19:33:45, 86016 bytes
   Driver: C:\Windows\system32\DRIVERS\drmk.sys, 10.00.17134.0001 (English), 4/11/2018 19:33:46, 98304 bytes
   Driver: C:\Windows\system32\DRIVERS\portcls.sys, 10.00.17134.0001 (English), 4/11/2018 19:33:46, 379392 bytes

     Name: Intel(R) Management Engine Interface 
Device ID: PCI\VEN_8086&DEV_A2BA&SUBSYS_86941043&REV_00\3&11583659&0&B0
   Driver: C:\Windows\system32\DRIVERS\TeeDriverW8x64.sys, 1815.12.0000.2021 (English), 5/6/2018 08:52:26, 228992 bytes

     Name: Intel(R) Ethernet Connection (2) I219-V
Device ID: PCI\VEN_8086&DEV_15B8&SUBSYS_86721043&REV_00\3&11583659&0&FE
   Driver: C:\Windows\system32\DRIVERS\e1d65x64.sys, 12.17.0008.0007 (English), 9/24/2017 17:44:10, 546880 bytes
   Driver: C:\Windows\system32\e1d65x64.din, 10/31/2017 00:55:20, 3130 bytes
   Driver: C:\Windows\system32\NicCo4.dll, 4.02.0003.0000 (English), 10/31/2017 02:36:42, 134448 bytes
   Driver: C:\Windows\system32\NicInstD.dll, 9.12.0020.0000 (English), 10/20/2016 12:43:50, 91624 bytes
   Driver: C:\Windows\system32\e1dmsg.dll, 10.00.0768.0000 (English), 9/21/2017 12:55:26, 79936 bytes

     Name: PCI standard host CPU bridge
Device ID: PCI\VEN_8086&DEV_3EC2&SUBSYS_86941043&REV_07\3&11583659&0&00
   Driver: n/a

     Name: Intel(R) SMBUS - A2A3
Device ID: PCI\VEN_8086&DEV_A2A3&SUBSYS_86941043&REV_00\3&11583659&0&FC
   Driver: n/a

     Name: NVIDIA GeForce GTX 1080
Device ID: PCI\VEN_10DE&DEV_1B80&SUBSYS_37171458&REV_A1\4&798C2C0&0&00DC
   Driver: C:\Windows\system32\DRIVERS\NVIDIA Corporation\Drs\dbInstaller.exe, 26.21.0014.3630 (English), 9/6/2019 14:26:02, 733904 bytes
   Driver: C:\Windows\system32\DRIVERS\NVIDIA Corporation\Drs\nvdrsdb.bin, 9/5/2019 17:19:59, 1620444 bytes
   Driver: C:\Windows\System32\DriverStore\FileRepository\nv_dispi.inf_amd64_830a0263f2ee97ce\NvContainerSetup.exe, 1.00.0010.0000 (English), 9/6/2019 14:26:32, 4656112 bytes
   Driver: C:\Windows\System32\DriverStore\FileRepository\nv_dispi.inf_amd64_830a0263f2ee97ce\NvCplSetupInt.exe, 1.00.0010.0000 (English), 9/6/2019 14:26:34, 102728864 bytes
   Driver: C:\Program Files (x86)\NVIDIA Corporation\coprocmanager\detoured.dll, 2.01.0000.0224 (English), 9/6/2019 14:26:50, 29384 bytes
   Driver: C:\Program Files (x86)\NVIDIA Corporation\coprocmanager\nvd3d9wrap.dll, 26.21.0014.3630 (English), 9/6/2019 14:26:46, 237264 bytes
   Driver: C:\Program Files (x86)\NVIDIA Corporation\coprocmanager\nvdxgiwrap.dll, 26.21.0014.3630 (English), 9/6/2019 14:26:56, 162048 bytes
   Driver: C:\Program Files\NVIDIA Corporation\coprocmanager\detoured.dll, 2.01.0000.0224 (English), 9/6/2019 14:26:50, 29624 bytes
   Driver: C:\Program Files\NVIDIA Corporation\coprocmanager\nvd3d9wrapx.dll, 26.21.0014.3630 (English), 9/6/2019 14:26:46, 279944 bytes
   Driver: C:\Program Files\NVIDIA Corporation\coprocmanager\nvdxgiwrapx.dll, 26.21.0014.3630 (English), 9/6/2019 14:26:56, 189184 bytes
   Driver: C:\Program Files\NVIDIA Corporation\license.txt, 11/9/2017 06:57:26, 27203 bytes
   Driver: C:\Program Files\NVIDIA Corporation\NVSMI\MCU.exe, 1.01.5204.20580 (English), 9/6/2019 14:26:12, 858504 bytes
   Driver: C:\Program Files\NVIDIA Corporation\NVSMI\nvdebugdump.exe, 6.14.0014.3630 (English), 9/6/2019 14:26:48, 450768 bytes
   Driver: C:\Program Files\NVIDIA Corporation\NVSMI\nvidia-smi.1.pdf, 9/5/2019 17:19:59, 104564 bytes
   Driver: C:\Program Files\NVIDIA Corporation\NVSMI\nvidia-smi.exe, 8.17.0014.3630 (English), 9/6/2019 14:27:10, 571648 bytes
   Driver: C:\Program Files\NVIDIA Corporation\NVSMI\nvml.dll, 8.17.0014.3630 (English), 9/6/2019 14:27:28, 999624 bytes
   Driver: C:\Windows\System32\DriverStore\FileRepository\nv_dispi.inf_amd64_830a0263f2ee97ce\nvopencl32.dll, 26.21.0014.3630 (English), 9/6/2019 14:27:48, 25080712 bytes
   Driver: C:\Windows\System32\DriverStore\FileRepository\nv_dispi.inf_amd64_830a0263f2ee97ce\nvopencl64.dll, 26.21.0014.3630 (English), 9/6/2019 14:27:54, 29718408 bytes
   Driver: C:\Windows\System32\DriverStore\FileRepository\nv_dispi.inf_amd64_830a0263f2ee97ce\nvlddmkm.sys, 26.21.0014.3630 (English), 9/6/2019 14:27:24, 22370696 bytes
   Driver: C:\Windows\System32\DriverStore\FileRepository\nv_dispi.inf_amd64_830a0263f2ee97ce\nv-vk64.json, 9/5/2019 17:19:59, 671 bytes
   Driver: C:\Windows\System32\DriverStore\FileRepository\nv_dispi.inf_amd64_830a0263f2ee97ce\nvDecMFTMjpeg.dll, 26.21.0014.3630 (English), 9/6/2019 14:26:48, 611720 bytes
   Driver: C:\Windows\System32\DriverStore\FileRepository\nv_dispi.inf_amd64_830a0263f2ee97ce\nvDecMFTMjpegx.dll, 26.21.0014.3630 (English), 9/6/2019 14:26:50, 754056 bytes
   Driver: C:\Windows\System32\DriverStore\FileRepository\nv_dispi.inf_amd64_830a0263f2ee97ce\nvEncMFTH264.dll, 26.21.0014.3630 (English), 9/6/2019 14:26:56, 1141640 bytes
   Driver: C:\Windows\System32\DriverStore\FileRepository\nv_dispi.inf_amd64_830a0263f2ee97ce\nvEncMFTH264x.dll, 26.21.0014.3630 (English), 9/6/2019 14:26:58, 1451776 bytes
   Driver: C:\Windows\System32\DriverStore\FileRepository\nv_dispi.inf_amd64_830a0263f2ee97ce\nvEncMFThevc.dll, 26.21.0014.3630 (English), 9/6/2019 14:26:58, 1148296 bytes
   Driver: C:\Windows\System32\DriverStore\FileRepository\nv_dispi.inf_amd64_830a0263f2ee97ce\nvEncMFThevcx.dll, 26.21.0014.3630 (English), 9/6/2019 14:27:00, 1461968 bytes
   Driver: C:\Windows\System32\DriverStore\FileRepository\nv_dispi.inf_amd64_830a0263f2ee97ce\nvcbl64.dll, 26.21.0014.3630 (English), 9/6/2019 14:26:18, 527240 bytes
   Driver: C:\Windows\System32\DriverStore\FileRepository\nv_dispi.inf_amd64_830a0263f2ee97ce\nvd3dumx.dll, 26.21.0014.3630 (English), 9/6/2019 11:25:02, 22048328 bytes
   Driver: C:\Windows\System32\DriverStore\FileRepository\nv_dispi.inf_amd64_830a0263f2ee97ce\nvd3dumx_cfg.dll, 26.21.0014.3630 (English), 9/6/2019 11:25:06, 22245376 bytes
   Driver: C:\Windows\System32\DriverStore\FileRepository\nv_dispi.inf_amd64_830a0263f2ee97ce\nvdlistx.dll, 26.21.0014.3630 (English), 9/6/2019 14:26:54, 202120 bytes
   Driver: C:\Windows\System32\DriverStore\FileRepository\nv_dispi.inf_amd64_830a0263f2ee97ce\nvinitx.dll, 26.21.0014.3630 (English), 9/6/2019 14:27:22, 216272 bytes
   Driver: C:\Windows\System32\DriverStore\FileRepository\nv_dispi.inf_amd64_830a0263f2ee97ce\nvldumdx.dll, 26.21.0014.3630 (English), 9/6/2019 11:25:16, 961896 bytes
   Driver: C:\Windows\System32\DriverStore\FileRepository\nv_dispi.inf_amd64_830a0263f2ee97ce\nvoglshim64.dll, 26.21.0014.3630 (English), 9/6/2019 14:27:32, 191936 bytes
   Driver: C:\Windows\System32\DriverStore\FileRepository\nv_dispi.inf_amd64_830a0263f2ee97ce\nvoglv64.dll, 26.21.0014.3630 (English), 9/6/2019 14:27:40, 39787208 bytes
   Driver: C:\Windows\System32\DriverStore\FileRepository\nv_dispi.inf_amd64_830a0263f2ee97ce\nvoptix.dll, 7.00.0002.0000 (English), 9/6/2019 14:28:02, 135239040 bytes
   Driver: C:\Windows\System32\DriverStore\FileRepository\nv_dispi.inf_amd64_830a0263f2ee97ce\nvrtum64.dll, 26.21.0014.3630 (English), 9/6/2019 14:28:28, 26878672 bytes
   Driver: C:\Windows\System32\DriverStore\FileRepository\nv_dispi.inf_amd64_830a0263f2ee97ce\nvumdshimx.dll, 26.21.0014.3630 (English), 9/6/2019 14:28:36, 605384 bytes
   Driver: C:\Windows\System32\DriverStore\FileRepository\nv_dispi.inf_amd64_830a0263f2ee97ce\nvwgf2umx.dll, 26.21.0014.3630 (English), 9/6/2019 11:25:26, 40212280 bytes
   Driver: C:\Windows\System32\DriverStore\FileRepository\nv_dispi.inf_amd64_830a0263f2ee97ce\nvwgf2umx_cfg.dll, 26.21.0014.3630 (English), 9/6/2019 11:25:34, 40707352 bytes
   Driver: C:\Windows\system32\NvFBC64.dll, 6.14.0014.3630 (English), 9/6/2019 14:27:06, 2051008 bytes
   Driver: C:\Windows\system32\NvIFR64.dll, 6.14.0014.3630 (English), 9/6/2019 14:27:16, 1477512 bytes
   Driver: C:\Windows\system32\NvIFROpenGL.dll, 26.21.0014.3630 (English), 9/6/2019 14:27:18, 632768 bytes
   Driver: C:\Windows\system32\OpenCL.dll, 2.02.0001.0000 (English), 9/6/2019 14:29:08, 447368 bytes
   Driver: C:\Windows\system32\nvEncodeAPI64.dll, 26.21.0014.3630 (English), 9/6/2019 14:27:02, 812800 bytes
   Driver: C:\Windows\system32\nvapi64.dll, 26.21.0014.3630 (English), 9/6/2019 11:24:54, 5002192 bytes
   Driver: C:\Windows\system32\nvcompiler.dll, 26.21.0014.3630 (English), 9/6/2019 14:26:26, 40444856 bytes
   Driver: C:\Windows\system32\nvcuda.dll, 26.21.0014.3630 (English), 9/6/2019 14:26:38, 17300360 bytes
   Driver: C:\Windows\system32\nvcuvid.dll, 7.17.0014.3630 (English), 9/6/2019 14:26:44, 5358472 bytes
   Driver: C:\Windows\system32\nvfatbinaryLoader.dll, 26.21.0014.3630 (English), 9/6/2019 14:27:04, 1247432 bytes
   Driver: C:\Windows\system32\nvinfo.pb, 9/5/2019 17:19:59, 54700 bytes
   Driver: C:\Windows\system32\nvmcumd.dll, 26.21.0014.3630 (English), 9/6/2019 14:27:28, 823552 bytes
   Driver: C:\Windows\system32\nvofapi64.dll, 9/6/2019 14:27:32, 676096 bytes
   Driver: C:\Windows\system32\nvptxJitCompiler.dll, 26.21.0014.3630 (English), 9/6/2019 14:28:24, 11562376 bytes
   Driver: C:\Windows\system32\vulkan-1-999-0-0-0.dll, 1.01.0106.0000 (English), 9/6/2019 14:29:12, 1012432 bytes
   Driver: C:\Windows\system32\vulkan-1.dll, 1.01.0106.0000 (English), 9/6/2019 14:29:12, 1012432 bytes
   Driver: C:\Windows\system32\vulkaninfo-1-999-0-0-0.exe, 1.01.0106.0000 (English), 9/6/2019 14:29:14, 301264 bytes
   Driver: C:\Windows\system32\vulkaninfo.exe, 1.01.0106.0000 (English), 9/6/2019 14:29:14, 301264 bytes
   Driver: C:\Windows\System32\DriverStore\FileRepository\nv_dispi.inf_amd64_830a0263f2ee97ce\DisplayDriverRAS.dll, 1.10.0000.0000 (English), 9/6/2019 14:26:04, 2622664 bytes
   Driver: C:\Windows\System32\DriverStore\FileRepository\nv_dispi.inf_amd64_830a0263f2ee97ce\nv-vk32.json, 9/5/2019 17:19:59, 671 bytes
   Driver: C:\Windows\System32\DriverStore\FileRepository\nv_dispi.inf_amd64_830a0263f2ee97ce\nv_Icc_AdvancedColor_Identity.icm, 9/5/2019 17:19:59, 3288 bytes
   Driver: C:\Windows\System32\DriverStore\FileRepository\nv_dispi.inf_amd64_830a0263f2ee97ce\nvd3dum.dll, 26.21.0014.3630 (English), 9/6/2019 11:24:56, 18372976 bytes
   Driver: C:\Windows\System32\DriverStore\FileRepository\nv_dispi.inf_amd64_830a0263f2ee97ce\nvd3dum_cfg.dll, 26.21.0014.3630 (English), 9/6/2019 11:25:10, 18722952 bytes
   Driver: C:\Windows\System32\DriverStore\FileRepository\nv_dispi.inf_amd64_830a0263f2ee97ce\nvdlist.dll, 26.21.0014.3630 (English), 9/6/2019 14:26:54, 177032 bytes
   Driver: C:\Windows\System32\DriverStore\FileRepository\nv_dispi.inf_amd64_830a0263f2ee97ce\nvinit.dll, 26.21.0014.3630 (English), 9/6/2019 14:27:22, 190152 bytes
   Driver: C:\Windows\System32\DriverStore\FileRepository\nv_dispi.inf_amd64_830a0263f2ee97ce\nvldumd.dll, 26.21.0014.3630 (English), 9/6/2019 11:25:14, 802760 bytes
   Driver: C:\Windows\System32\DriverStore\FileRepository\nv_dispi.inf_amd64_830a0263f2ee97ce\nvoglshim32.dll, 26.21.0014.3630 (English), 9/6/2019 14:27:32, 164232 bytes
   Driver: C:\Windows\System32\DriverStore\FileRepository\nv_dispi.inf_amd64_830a0263f2ee97ce\nvoglv32.dll, 26.21.0014.3630 (English), 9/6/2019 14:27:34, 29217992 bytes
   Driver: C:\Windows\System32\DriverStore\FileRepository\nv_dispi.inf_amd64_830a0263f2ee97ce\nvumdshim.dll, 26.21.0014.3630 (English), 9/6/2019 14:28:36, 522960 bytes
   Driver: C:\Windows\System32\DriverStore\FileRepository\nv_dispi.inf_amd64_830a0263f2ee97ce\nvwgf2um.dll, 26.21.0014.3630 (English), 9/6/2019 11:25:18, 34619144 bytes
   Driver: C:\Windows\System32\DriverStore\FileRepository\nv_dispi.inf_amd64_830a0263f2ee97ce\nvwgf2um_cfg.dll, 26.21.0014.3630 (English), 9/6/2019 11:25:42, 35364216 bytes
   Driver: C:\Windows\SysWow64\NvFBC.dll, 6.14.0014.3630 (English), 9/6/2019 14:27:04, 1550080 bytes
   Driver: C:\Windows\SysWow64\NvIFR.dll, 6.14.0014.3630 (English), 9/6/2019 14:27:16, 1140616 bytes
   Driver: C:\Windows\SysWow64\NvIFROpenGL.dll, 26.21.0014.3630 (English), 9/6/2019 14:27:18, 524168 bytes
   Driver: C:\Windows\SysWow64\OpenCL.dll, 2.02.0001.0000 (English), 9/6/2019 14:29:06, 351944 bytes
   Driver: C:\Windows\SysWow64\nvEncodeAPI.dll, 26.21.0014.3630 (English), 9/6/2019 14:27:00, 658880 bytes
   Driver: C:\Windows\SysWow64\nvapi.dll, 26.21.0014.3630 (English), 9/6/2019 11:24:54, 4263840 bytes
   Driver: C:\Windows\SysWow64\nvcompiler.dll, 26.21.0014.3630 (English), 9/6/2019 14:26:18, 35334536 bytes
   Driver: C:\Windows\SysWow64\nvcuda.dll, 26.21.0014.3630 (English), 9/6/2019 14:26:34, 14921096 bytes
   Driver: C:\Windows\SysWow64\nvcuvid.dll, 7.17.0014.3630 (English), 9/6/2019 14:26:42, 4696968 bytes
   Driver: C:\Windows\SysWow64\nvfatbinaryLoader.dll, 26.21.0014.3630 (English), 9/6/2019 14:27:02, 959424 bytes
   Driver: C:\Windows\SysWow64\nvofapi.dll, 9/6/2019 14:27:30, 544648 bytes
   Driver: C:\Windows\SysWow64\nvptxJitCompiler.dll, 26.21.0014.3630 (English), 9/6/2019 14:28:22, 9937104 bytes
   Driver: C:\Windows\SysWow64\vulkan-1-999-0-0-0.dll, 1.01.0106.0000 (English), 9/6/2019 14:29:14, 876240 bytes
   Driver: C:\Windows\SysWow64\vulkan-1.dll, 1.01.0106.0000 (English), 9/6/2019 14:29:14, 876240 bytes
   Driver: C:\Windows\SysWow64\vulkaninfo-1-999-0-0-0.exe, 1.01.0106.0000 (English), 9/6/2019 14:29:16, 273104 bytes
   Driver: C:\Windows\SysWow64\vulkaninfo.exe, 1.01.0106.0000 (English), 9/6/2019 14:29:16, 273104 bytes
   Driver: C:\Windows\System32\DriverStore\FileRepository\nv_dispi.inf_amd64_830a0263f2ee97ce\NvTelemetry64.dll, 14.03.0015.0000 (English), 9/6/2019 14:28:34, 4417928 bytes
   Driver: C:\Windows\system32\nvdispco6443630.dll, 2.00.0056.0000 (English), 9/6/2019 14:26:52, 1726400 bytes
   Driver: C:\Windows\system32\nvdispgenco6443630.dll, 2.00.0028.0002 (English), 9/6/2019 14:26:52, 1491336 bytes

     Name: Intel(R) USB 3.0 eXtensible Host Controller - 1.0 (Microsoft)
Device ID: PCI\VEN_8086&DEV_A2AF&SUBSYS_86941043&REV_00\3&11583659&0&A0
   Driver: C:\Windows\system32\DRIVERS\USBXHCI.SYS, 10.00.17134.0001 (English), 4/11/2018 19:33:52, 434592 bytes
   Driver: C:\Windows\system32\DRIVERS\UMDF\UsbXhciCompanion.dll, 10.00.17134.0001 (English), 4/11/2018 19:33:52, 123576 bytes

------------------
DirectShow Filters
------------------

DirectShow Filters:
WMAudio Decoder DMO,0x00800800,1,1,WMADMOD.DLL,10.00.17134.0001
WMAPro over S/PDIF DMO,0x00600800,1,1,WMADMOD.DLL,10.00.17134.0001
WMSpeech Decoder DMO,0x00600800,1,1,WMSPDMOD.DLL,10.00.17134.0001
MP3 Decoder DMO,0x00600800,1,1,mp3dmod.dll,10.00.17134.0001
Mpeg4s Decoder DMO,0x00800001,1,1,mp4sdecd.dll,10.00.17134.0001
WMV Screen decoder DMO,0x00600800,1,1,wmvsdecd.dll,10.00.17134.0001
WMVideo Decoder DMO,0x00800001,1,1,wmvdecod.dll,10.00.17134.0471
Mpeg43 Decoder DMO,0x00800001,1,1,mp43decd.dll,10.00.17134.0001
Mpeg4 Decoder DMO,0x00800001,1,1,mpg4decd.dll,10.00.17134.0001
DV Muxer,0x00400000,0,0,qdv.dll,10.00.17134.0001
Color Space Converter,0x00400001,1,1,quartz.dll,10.00.17134.0001
WM ASF Reader,0x00400000,0,0,qasf.dll,12.00.17134.0001
AVI Splitter,0x00600000,1,1,quartz.dll,10.00.17134.0001
VGA 16 Color Ditherer,0x00400000,1,1,quartz.dll,10.00.17134.0001
SBE2MediaTypeProfile,0x00200000,0,0,sbe.dll,10.00.17134.0001
Microsoft DTV-DVD Video Decoder,0x005fffff,2,4,msmpeg2vdec.dll,10.00.17134.1067
AC3 Parser Filter,0x00600000,1,1,mpg2splt.ax,10.00.17134.0001
StreamBufferSink,0x00200000,0,0,sbe.dll,10.00.17134.0001
MJPEG Decompressor,0x00600000,1,1,quartz.dll,10.00.17134.0001
MPEG-I Stream Splitter,0x00600000,1,2,quartz.dll,10.00.17134.0001
SAMI (CC) Parser,0x00400000,1,1,quartz.dll,10.00.17134.0001
VBI Codec,0x00600000,1,4,VBICodec.ax,10.00.17134.0001
MPEG-2 Splitter,0x005fffff,1,0,mpg2splt.ax,10.00.17134.0001
Closed Captions Analysis Filter,0x00200000,2,5,cca.dll,10.00.17134.0001
SBE2FileScan,0x00200000,0,0,sbe.dll,10.00.17134.0001
Microsoft MPEG-2 Video Encoder,0x00200000,1,1,msmpeg2enc.dll,10.00.17134.1067
Internal Script Command Renderer,0x00800001,1,0,quartz.dll,10.00.17134.0001
MPEG Audio Decoder,0x03680001,1,1,quartz.dll,10.00.17134.0001
DV Splitter,0x00600000,1,2,qdv.dll,10.00.17134.0001
Video Mixing Renderer 9,0x00200000,1,0,quartz.dll,10.00.17134.0001
Microsoft MPEG-2 Encoder,0x00200000,2,1,msmpeg2enc.dll,10.00.17134.1067
ACM Wrapper,0x00600000,1,1,quartz.dll,10.00.17134.0001
Video Renderer,0x00800001,1,0,quartz.dll,10.00.17134.0001
MPEG-2 Video Stream Analyzer,0x00200000,0,0,sbe.dll,10.00.17134.0001
Line 21 Decoder,0x00600000,1,1,,
Video Port Manager,0x00600000,2,1,quartz.dll,10.00.17134.0001
Video Renderer,0x00400000,1,0,quartz.dll,10.00.17134.0001
VPS Decoder,0x00200000,0,0,WSTPager.ax,10.00.17134.0001
WM ASF Writer,0x00400000,0,0,qasf.dll,12.00.17134.0001
VBI Surface Allocator,0x00600000,1,1,vbisurf.ax,
File writer,0x00200000,1,0,qcap.dll,10.00.17134.0001
DVD Navigator,0x00200000,0,3,qdvd.dll,10.00.17134.0001
Overlay Mixer2,0x00200000,1,1,,
AVI Draw,0x00600064,9,1,quartz.dll,10.00.17134.0001
Microsoft MPEG-2 Audio Encoder,0x00200000,1,1,msmpeg2enc.dll,10.00.17134.1067
WST Pager,0x00200000,1,1,WSTPager.ax,10.00.17134.0001
MPEG-2 Demultiplexer,0x00600000,1,1,mpg2splt.ax,10.00.17134.0001
DV Video Decoder,0x00800000,1,1,qdv.dll,10.00.17134.0001
SampleGrabber,0x00200000,1,1,qedit.dll,10.00.17134.0001
Null Renderer,0x00200000,1,0,qedit.dll,10.00.17134.0001
MPEG-2 Sections and Tables,0x005fffff,1,0,Mpeg2Data.ax,10.00.17134.0001
Microsoft AC3 Encoder,0x00200000,1,1,msac3enc.dll,10.00.17134.0001
StreamBufferSource,0x00200000,0,0,sbe.dll,10.00.17134.0001
Smart Tee,0x00200000,1,2,qcap.dll,10.00.17134.0001
Overlay Mixer,0x00200000,0,0,,
AVI Decompressor,0x00600000,1,1,quartz.dll,10.00.17134.0001
AVI/WAV File Source,0x00400000,0,2,quartz.dll,10.00.17134.0001
Wave Parser,0x00400000,1,1,quartz.dll,10.00.17134.0001
MIDI Parser,0x00400000,1,1,quartz.dll,10.00.17134.0001
Multi-file Parser,0x00400000,1,1,quartz.dll,10.00.17134.0001
File stream renderer,0x00400000,1,1,quartz.dll,10.00.17134.0001
Microsoft DTV-DVD Audio Decoder,0x005fffff,1,1,msmpeg2adec.dll,10.00.17134.0471
StreamBufferSink2,0x00200000,0,0,sbe.dll,10.00.17134.0001
AVI Mux,0x00200000,1,0,qcap.dll,10.00.17134.0001
Line 21 Decoder 2,0x00600002,1,1,quartz.dll,10.00.17134.0001
File Source (Async.),0x00400000,0,1,quartz.dll,10.00.17134.0001
File Source (URL),0x00400000,0,1,quartz.dll,10.00.17134.0001
Infinite Pin Tee Filter,0x00200000,1,1,qcap.dll,10.00.17134.0001
Enhanced Video Renderer,0x00200000,1,0,evr.dll,10.00.17134.0320
BDA MPEG2 Transport Information Filter,0x00200000,2,0,psisrndr.ax,10.00.17134.0001
MPEG Video Decoder,0x40000001,1,1,quartz.dll,10.00.17134.0001

WDM Streaming Tee/Splitter Devices:
Tee/Sink-to-Sink Converter,0x00200000,1,1,ksproxy.ax,10.00.17134.0001

Video Compressors:
WMVideo8 Encoder DMO,0x00600800,1,1,wmvxencd.dll,10.00.17134.0001
WMVideo9 Encoder DMO,0x00600800,1,1,wmvencod.dll,10.00.17134.0001
MSScreen 9 encoder DMO,0x00600800,1,1,wmvsencd.dll,10.00.17134.0001
DV Video Encoder,0x00200000,0,0,qdv.dll,10.00.17134.0001
MJPEG Compressor,0x00200000,0,0,quartz.dll,10.00.17134.0001

Audio Compressors:
WM Speech Encoder DMO,0x00600800,1,1,WMSPDMOE.DLL,10.00.17134.0001
WMAudio Encoder DMO,0x00600800,1,1,WMADMOE.DLL,10.00.17134.0001
IMA ADPCM,0x00200000,1,1,quartz.dll,10.00.17134.0001
PCM,0x00200000,1,1,quartz.dll,10.00.17134.0001
Microsoft ADPCM,0x00200000,1,1,quartz.dll,10.00.17134.0001
GSM 6.10,0x00200000,1,1,quartz.dll,10.00.17134.0001
CCITT A-Law,0x00200000,1,1,quartz.dll,10.00.17134.0001
CCITT u-Law,0x00200000,1,1,quartz.dll,10.00.17134.0001
MPEG Layer-3,0x00200000,1,1,quartz.dll,10.00.17134.0001

PBDA CP Filters:
PBDA DTFilter,0x00600000,1,1,CPFilters.dll,10.00.17134.1067
PBDA ETFilter,0x00200000,0,0,CPFilters.dll,10.00.17134.1067
PBDA PTFilter,0x00200000,0,0,CPFilters.dll,10.00.17134.1067

Midi Renderers:
Default MidiOut Device,0x00800000,1,0,quartz.dll,10.00.17134.0001
Microsoft GS Wavetable Synth,0x00200000,1,0,quartz.dll,10.00.17134.0001

WDM Streaming Capture Devices:
Realtek HD Audio Mic input,0x00200000,1,1,ksproxy.ax,10.00.17134.0001
Realtek HD Audio Line input,0x00200000,1,1,ksproxy.ax,10.00.17134.0001
Realtek HD Audio Stereo input,0x00200000,1,1,ksproxy.ax,10.00.17134.0001
,0x00000000,0,0,,

WDM Streaming Rendering Devices:
Realtek HD Audio output,0x00200000,1,1,ksproxy.ax,10.00.17134.0001
Realtek HDA SPDIF Out,0x00200000,1,1,ksproxy.ax,10.00.17134.0001
,0x00000000,0,0,,
USB  AUDIO  ,0x00200000,1,1,ksproxy.ax,10.00.17134.0001

BDA Network Providers:
Microsoft ATSC Network Provider,0x00200000,0,1,MSDvbNP.ax,10.00.17134.0001
Microsoft DVBC Network Provider,0x00200000,0,1,MSDvbNP.ax,10.00.17134.0001
Microsoft DVBS Network Provider,0x00200000,0,1,MSDvbNP.ax,10.00.17134.0001
Microsoft DVBT Network Provider,0x00200000,0,1,MSDvbNP.ax,10.00.17134.0001
Microsoft Network Provider,0x00200000,0,1,MSNP.ax,10.00.17134.0001

Multi-Instance Capable VBI Codecs:
VBI Codec,0x00600000,1,4,VBICodec.ax,10.00.17134.0001

BDA Transport Information Renderers:
BDA MPEG2 Transport Information Filter,0x00600000,2,0,psisrndr.ax,10.00.17134.0001
MPEG-2 Sections and Tables,0x00600000,1,0,Mpeg2Data.ax,10.00.17134.0001

WDM Streaming Communication Transforms:
Tee/Sink-to-Sink Converter,0x00200000,1,1,ksproxy.ax,10.00.17134.0001

Audio Renderers:
Speakers (3- USB  AUDIO  ),0x00200000,1,0,quartz.dll,10.00.17134.0001
Default DirectSound Device,0x00800000,1,0,quartz.dll,10.00.17134.0001
Default WaveOut Device,0x00200000,1,0,quartz.dll,10.00.17134.0001
DirectSound: Speakers (3- USB  AUDIO  ),0x00200000,1,0,quartz.dll,10.00.17134.0001
DirectSound: Realtek Digital Output (Realtek High Definition Audio),0x00200000,1,0,quartz.dll,10.00.17134.0001
DirectSound: Dell S2716DG (NVIDIA High Definition Audio),0x00200000,1,0,quartz.dll,10.00.17134.0001
Realtek Digital Output (Realtek High Definition Audio),0x00200000,1,0,quartz.dll,10.00.17134.0001
Dell S2716DG (NVIDIA High Definition Audio),0x00200000,1,0,quartz.dll,10.00.17134.0001


----------------------------
Preferred DirectShow Filters
----------------------------

[HKEY_LOCAL_MACHINE\Software\Microsoft\DirectShow\Preferred]

<media subtype GUID>, [<filter friendly name>, ]<filter CLSID>

MEDIASUBTYPE_MPEG1Payload, MPEG Video Decoder, CLSID_CMpegVideoCodec
MEDIASUBTYPE_MPEG1Packet, MPEG Video Decoder, CLSID_CMpegVideoCodec
MEDIASUBTYPE_DVD_LPCM_AUDIO, Microsoft DTV-DVD Audio Decoder, CLSID_CMPEG2AudDecoderDS
MEDIASUBTYPE_MPEG2_AUDIO, Microsoft DTV-DVD Audio Decoder, CLSID_CMPEG2AudDecoderDS
MEDIASUBTYPE_MPEG2_VIDEO, Microsoft DTV-DVD Video Decoder, CLSID_CMPEG2VidDecoderDS
{78766964-0000-0010-8000-00AA00389B71}, Mpeg4s Decoder DMO, CLSID_CMpeg4sDecMediaObject
{7634706D-0000-0010-8000-00AA00389B71}, Mpeg4s Decoder DMO, CLSID_CMpeg4sDecMediaObject
MEDIASUBTYPE_mp4s, Mpeg4s Decoder DMO, CLSID_CMpeg4sDecMediaObject
{6C737664-0000-0010-8000-00AA00389B71}, DV Video Decoder, CLSID_DVVideoCodec
{64737664-0000-0010-8000-00AA00389B71}, DV Video Decoder, CLSID_DVVideoCodec
{64697678-0000-0010-8000-00AA00389B71}, Mpeg4s Decoder DMO, CLSID_CMpeg4sDecMediaObject
{64687664-0000-0010-8000-00AA00389B71}, DV Video Decoder, CLSID_DVVideoCodec
{58564944-0000-0010-8000-00AA00389B71}, Mpeg4s Decoder DMO, CLSID_CMpeg4sDecMediaObject
{5634504D-0000-0010-8000-00AA00389B71}, Mpeg4s Decoder DMO, CLSID_CMpeg4sDecMediaObject
MEDIASUBTYPE_MP4S, Mpeg4s Decoder DMO, CLSID_CMpeg4sDecMediaObject
MEDIASUBTYPE_WMVR, WMVideo Decoder DMO, CLSID_CWMVDecMediaObject
MEDIASUBTYPE_WMVP, WMVideo Decoder DMO, CLSID_CWMVDecMediaObject
MEDIASUBTYPE_MJPG, MJPEG Decompressor, CLSID_MjpegDec
{44495658-0000-0010-8000-00AA00389B71}, Mpeg4s Decoder DMO, CLSID_CMpeg4sDecMediaObject
MEDIASUBTYPE_WMVA, WMVideo Decoder DMO, CLSID_CWMVDecMediaObject
MEDIASUBTYPE_mpg4, Mpeg4 Decoder DMO, CLSID_CMpeg4DecMediaObject
MEDIASUBTYPE_MPG4, Mpeg4 Decoder DMO, CLSID_CMpeg4DecMediaObject
MEDIASUBTYPE_h264, Microsoft DTV-DVD Video Decoder, CLSID_CMPEG2VidDecoderDS
MEDIASUBTYPE_H264, Microsoft DTV-DVD Video Decoder, CLSID_CMPEG2VidDecoderDS
MEDIASUBTYPE_WMV3, WMVideo Decoder DMO, CLSID_CWMVDecMediaObject
MEDIASUBTYPE_mp43, Mpeg43 Decoder DMO, CLSID_CMpeg43DecMediaObject
MEDIASUBTYPE_MP43, Mpeg43 Decoder DMO, CLSID_CMpeg43DecMediaObject
MEDIASUBTYPE_m4s2, Mpeg4s Decoder DMO, CLSID_CMpeg4sDecMediaObject
MEDIASUBTYPE_WMV2, WMVideo Decoder DMO, CLSID_CWMVDecMediaObject
MEDIASUBTYPE_MSS2, WMV Screen decoder DMO, CLSID_CMSSCDecMediaObject
MEDIASUBTYPE_M4S2, Mpeg4s Decoder DMO, CLSID_CMpeg4sDecMediaObject
MEDIASUBTYPE_WVP2, WMVideo Decoder DMO, CLSID_CWMVDecMediaObject
MEDIASUBTYPE_mp42, Mpeg4 Decoder DMO, CLSID_CMpeg4DecMediaObject
MEDIASUBTYPE_MP42, Mpeg4 Decoder DMO, CLSID_CMpeg4DecMediaObject
MEDIASUBTYPE_WMV1, WMVideo Decoder DMO, CLSID_CWMVDecMediaObject
MEDIASUBTYPE_MSS1, WMV Screen decoder DMO, CLSID_CMSSCDecMediaObject
MEDIASUBTYPE_WVC1, WMVideo Decoder DMO, CLSID_CWMVDecMediaObject
MEDIASUBTYPE_AVC1, Microsoft DTV-DVD Video Decoder, CLSID_CMPEG2VidDecoderDS
{20637664-0000-0010-8000-00AA00389B71}, DV Video Decoder, CLSID_DVVideoCodec
MEDIASUBTYPE_MPEG_LOAS, Microsoft DTV-DVD Audio Decoder, CLSID_CMPEG2AudDecoderDS
MEDIASUBTYPE_MPEG_ADTS_AAC, Microsoft DTV-DVD Audio Decoder, CLSID_CMPEG2AudDecoderDS
MEDIASUBTYPE_WMAUDIO_LOSSLESS, WMAudio Decoder DMO, CLSID_CWMADecMediaObject
MEDIASUBTYPE_WMAUDIO3, WMAudio Decoder DMO, CLSID_CWMADecMediaObject
WMMEDIASUBTYPE_WMAudioV8, WMAudio Decoder DMO, CLSID_CWMADecMediaObject
MEDIASUBTYPE_MSAUDIO1, WMAudio Decoder DMO, CLSID_CWMADecMediaObject
MEDIASUBTYPE_RAW_AAC1, Microsoft DTV-DVD Audio Decoder, CLSID_CMPEG2AudDecoderDS
WMMEDIASUBTYPE_MP3, MP3 Decoder DMO, CLSID_CMP3DecMediaObject
MEDIASUBTYPE_MPEG1AudioPayload, MPEG Audio Decoder, CLSID_CMpegAudioCodec
WMMEDIASUBTYPE_WMSP2, WMSpeech Decoder DMO, CLSID_CWMSPDecMediaObject
WMMEDIASUBTYPE_WMSP1, WMSpeech Decoder DMO, CLSID_CWMSPDecMediaObject


---------------------------
Media Foundation Transforms
---------------------------

[HKEY_LOCAL_MACHINE\Software\Classes\MediaFoundation\Transforms]

<category>:
  <transform friendly name>, <transform CLSID>, <flags>, [<merit>, ]<file name>, <file version>

Video Decoders:
  NVIDIA MJPEG Video Decoder MFT, {70F36578-2741-454F-B494-E8563DDD1CB4}, 0x4, 8, nvDecMFTMjpegx.dll, 26.21.0014.3630
  Microsoft MPEG Video Decoder MFT, {2D709E52-123F-49B5-9CBC-9AF5CDE28FB9}, 0x1, msmpeg2vdec.dll, 10.00.17134.1067
  DV Decoder MFT, {404A6DE5-D4D6-4260-9BC7-5A6CBD882432}, 0x1, mfdvdec.dll, 10.00.17134.0001
  Mpeg4s Decoder MFT, CLSID_CMpeg4sDecMFT, 0x1, mp4sdecd.dll, 10.00.17134.0001
  Microsoft H264 Video Decoder MFT, CLSID_CMSH264DecoderMFT, 0x1, msmpeg2vdec.dll, 10.00.17134.1067
  WMV Screen decoder MFT, CLSID_CMSSCDecMediaObject, 0x1, wmvsdecd.dll, 10.00.17134.0001
  WMVideo Decoder MFT, CLSID_CWMVDecMediaObject, 0x1, wmvdecod.dll, 10.00.17134.0471
  MJPEG Decoder MFT, {CB17E772-E1CC-4633-8450-5617AF577905}, 0x1, mfmjpegdec.dll, 10.00.17134.0001
  Mpeg43 Decoder MFT, CLSID_CMpeg43DecMediaObject, 0x1, mp43decd.dll, 10.00.17134.0001
  Microsoft WebM MF VP8 Decoder Transform, {E3AAF548-C9A4-4C6E-234D-5ADA374B0000}, 0x1, MSVP9DEC.dll, 10.00.17134.0471
  Mpeg4 Decoder MFT, CLSID_CMpeg4DecMediaObject, 0x1, mpg4decd.dll, 10.00.17134.0001
Video Encoders:
  NVIDIA H.264 Encoder MFT, {60F44560-5A20-4857-BFEF-D29773CB8040}, 0x4, 8, nvEncMFTH264x.dll, 26.21.0014.3630
  NVIDIA HEVC Encoder MFT, {966F107C-8EA2-425D-B822-E4A71BEF01D7}, 0x4, 8, nvEncMFThevcx.dll, 26.21.0014.3630
  H264 Encoder MFT, {6CA50344-051A-4DED-9779-A43305165E35}, 0x1, mfh264enc.dll, 10.00.17134.0001
  WMVideo8 Encoder MFT, CLSID_CWMVXEncMediaObject, 0x1, wmvxencd.dll, 10.00.17134.0001
  Microsoft MF VPX Encoder Transform, {AEB6C755-2546-4881-82CC-E15AE5EBFF3D}, 0x1, MSVPXENC.dll, 10.00.17134.1067
  H263 Encoder MFT, {BC47FCFE-98A0-4F27-BB07-698AF24F2B38}, 0x1, mfh263enc.dll, 10.00.17134.0001
  WMVideo9 Encoder MFT, CLSID_CWMV9EncMediaObject, 0x1, wmvencod.dll, 10.00.17134.0001
  Microsoft MPEG-2 Video Encoder MFT, {E6335F02-80B7-4DC4-ADFA-DFE7210D20D5}, 0x2, msmpeg2enc.dll, 10.00.17134.1067
Video Effects:
  Frame Rate Converter, CLSID_CFrameRateConvertDmo, 0x1, mfvdsp.dll, 10.00.17134.0001
  Resizer MFT, CLSID_CResizerDMO, 0x1, vidreszr.dll, 10.00.17134.0001
  VideoStabilization MFT, {51571744-7FE4-4FF2-A498-2DC34FF74F1B}, 0x1, MSVideoDSP.dll, 10.00.17134.1038
  Color Control, CLSID_CColorControlDmo, 0x1, mfvdsp.dll, 10.00.17134.0001
  Color Converter MFT, CLSID_CColorConvertDMO, 0x1, colorcnv.dll, 10.00.17134.0001
Video Processor:
  Microsoft Video Processor MFT, {88753B26-5B24-49BD-B2E7-0C445C78C982}, 0x1, msvproc.dll, 10.00.17134.1067
Audio Decoders:
  Microsoft Dolby Digital Plus Decoder MFT, {177C0AFE-900B-48D4-9E4C-57ADD250B3D4}, 0x1, DolbyDecMFT.dll, 10.00.17134.0081
  MS AMRNB Decoder MFT, {265011AE-5481-4F77-A295-ABB6FFE8D63E}, 0x1, MSAMRNBDecoder.dll, 10.00.17134.0001
  WMAudio Decoder MFT, CLSID_CWMADecMediaObject, 0x1, WMADMOD.DLL, 10.00.17134.0001
  Microsoft AAC Audio Decoder MFT, CLSID_CMSAACDecMFT, 0x1, MSAudDecMFT.dll, 10.00.17134.0471
  A-law Wrapper MFT, {36CB6E0C-78C1-42B2-9943-846262F31786}, 0x1, mfcore.dll, 10.00.17134.1067
  GSM ACM Wrapper MFT, {4A76B469-7B66-4DD4-BA2D-DDF244C766DC}, 0x1, mfcore.dll, 10.00.17134.1067
  WMAPro over S/PDIF MFT, CLSID_CWMAudioSpdTxDMO, 0x1, WMADMOD.DLL, 10.00.17134.0001
  Microsoft Opus Audio Decoder MFT, {63E17C10-2D43-4C42-8FE3-8D8B63E46A6A}, 0x1, MSOpusDecoder.dll, 10.00.17134.0001
  Microsoft FLAC Audio Decoder MFT, {6B0B3E6B-A2C5-4514-8055-AFE8A95242D9}, 0x1, MSFlacDecoder.dll, 10.00.17134.0001
  Microsoft MPEG Audio Decoder MFT, {70707B39-B2CA-4015-ABEA-F8447D22D88B}, 0x1, MSAudDecMFT.dll, 10.00.17134.0471
  WMSpeech Decoder DMO, CLSID_CWMSPDecMediaObject, 0x1, WMSPDMOD.DLL, 10.00.17134.0001
  G711 Wrapper MFT, {92B66080-5E2D-449E-90C4-C41F268E5514}, 0x1, mfcore.dll, 10.00.17134.1067
  IMA ADPCM ACM Wrapper MFT, {A16E1BFF-A80D-48AD-AECD-A35C005685FE}, 0x1, mfcore.dll, 10.00.17134.1067
  MP3 Decoder MFT, CLSID_CMP3DecMediaObject, 0x1, mp3dmod.dll, 10.00.17134.0001
  Microsoft ALAC Audio Decoder MFT, {C0CD7D12-31FC-4BBC-B363-7322EE3E1879}, 0x1, MSAlacDecoder.dll, 10.00.17134.0001
  ADPCM ACM Wrapper MFT, {CA34FE0A-5722-43AD-AF23-05F7650257DD}, 0x1, mfcore.dll, 10.00.17134.1067
  Dolby TrueHD IEC-61937 converter MFT, {CF5EEEDF-0E92-4B3B-A161-BD0FFE545E4B}, 0x1, mfaudiocnv.dll, 10.00.17134.0001
  DTS IEC-61937 converter MFT, {D035E24C-C877-42D7-A795-2A8A339B472F}, 0x1, mfaudiocnv.dll, 10.00.17134.0001
Audio Encoders:
  LPCM DVD-Audio MFT, {068A8476-9229-4CC0-9D49-2FC699DCD30A}, 0x1, mfaudiocnv.dll, 10.00.17134.0001
  MP3 Encoder ACM Wrapper MFT, {11103421-354C-4CCA-A7A3-1AFF9A5B6701}, 0x1, mfcore.dll, 10.00.17134.1067
  Microsoft FLAC Audio Encoder MFT, {128509E9-C44E-45DC-95E9-C255B8F466A6}, 0x1, MSFlacEncoder.dll, 10.00.17134.0001
  WM Speech Encoder DMO, CLSID_CWMSPEncMediaObject2, 0x1, WMSPDMOE.DLL, 10.00.17134.0001
  MS AMRNB Encoder MFT, {2FAE8AFE-04A3-423A-A814-85DB454712B0}, 0x1, MSAMRNBEncoder.dll, 10.00.17134.0001
  Microsoft MPEG-2 Audio Encoder MFT, {46A4DD5C-73F8-4304-94DF-308F760974F4}, 0x1, msmpeg2enc.dll, 10.00.17134.1067
  WMAudio Encoder MFT, CLSID_CWMAEncMediaObject, 0x1, WMADMOE.DLL, 10.00.17134.0001
  Microsoft AAC Audio Encoder MFT, {93AF0C51-2275-45D2-A35B-F2BA21CAED00}, 0x1, mfAACEnc.dll, 10.00.17134.0001
  Microsoft ALAC Audio Encoder MFT, {9AB6A28C-748E-4B6A-BFFF-CC443B8E8FB4}, 0x1, MSAlacEncoder.dll, 10.00.17134.0001
  Microsoft Dolby Digital Encoder MFT, {AC3315C9-F481-45D7-826C-0B406C1F64B8}, 0x1, msac3enc.dll, 10.00.17134.0001
Audio Effects:
  AEC, CLSID_CWMAudioAEC, 0x1, mfwmaaec.dll, 10.00.17134.0001
  Resampler MFT, CLSID_CResamplerMediaObject, 0x1, resampledmo.dll, 10.00.17134.0137
Multiplexers:
  Microsoft MPEG2 Multiplexer MFT, {AB300F71-01AB-46D2-AB6C-64906CB03258}, 0x2, mfmpeg2srcsnk.dll, 10.00.17134.1067
Others:
  Microsoft H264 Video Remux (MPEG2TSToMP4) MFT, {05A47EBB-8BF0-4CBF-AD2F-3B71D75866F5}, 0x1, msmpeg2vdec.dll, 10.00.17134.1067


--------------------------------------------
Media Foundation Enabled Hardware Categories
--------------------------------------------

[HKEY_LOCAL_MACHINE\Software\Microsoft\Windows Media Foundation\HardwareMFT]

EnableDecoders = 1
EnableEncoders = 1


-------------------------------------
Media Foundation Byte Stream Handlers
-------------------------------------

[HKEY_LOCAL_MACHINE\Software\Microsoft\Windows Media Foundation\ByteStreamHandlers]
[HKEY_LOCAL_MACHINE\Software\Classes\MediaFoundation\MediaSources\Preferred]

<file ext. or MIME type>, <handler CLSID>, <brief description>[, Preferred]

.3g2, {271C3902-6095-4C45-A22F-20091816EE9E}, MPEG4 Byte Stream Handler, Preferred
.3gp, {271C3902-6095-4C45-A22F-20091816EE9E}, MPEG4 Byte Stream Handler, Preferred
.3gp2, {271C3902-6095-4C45-A22F-20091816EE9E}, MPEG4 Byte Stream Handler, Preferred
.3gpp, {271C3902-6095-4C45-A22F-20091816EE9E}, MPEG4 Byte Stream Handler, Preferred
.aac, {926F41F7-003E-4382-9E84-9E953BE10562}, ADTS Byte Stream Handler, Preferred
.ac3, {46031BA1-083F-47D9-8369-23C92BDAB2FF}, AC-3 Byte Stream Handler, Preferred
.adt, {926F41F7-003E-4382-9E84-9E953BE10562}, ADTS Byte Stream Handler, Preferred
.adts, {926F41F7-003E-4382-9E84-9E953BE10562}, ADTS Byte Stream Handler, Preferred
.am?, {EFE6208A-0A2C-49FA-8A01-3768B559B6DA}, MF AMRNB Media Source ByteStreamHandler
.amr, {EFE6208A-0A2C-49FA-8A01-3768B559B6DA}, MF AMRNB Media Source ByteStreamHandler, Preferred
.asf, {41457294-644C-4298-A28A-BD69F2C0CF3B}, ASF Byte Stream Handler, Preferred
.avi, {7AFA253E-F823-42F6-A5D9-714BDE467412}, AVI Byte Stream Handler, Preferred
.dvr-ms, {65964407-A5D8-4060-85B0-1CCD63F768E2}, dvr-ms Byte Stream Handler, Preferred
.dvr-ms, {A8721937-E2FB-4D7A-A9EE-4EB08C890B6E}, MF SBE Source ByteStreamHandler
.ec3, {46031BA1-083F-47D9-8369-23C92BDAB2FF}, AC-3 Byte Stream Handler, Preferred
.flac, {0E41CFB8-0506-40F4-A516-77CC23642D91}, MF FLAC Media Source ByteStreamHandler, Preferred
.m2t, {40871C59-AB40-471F-8DC3-1F259D862479}, MPEG2 Byte Stream Handler, Preferred
.m2ts, {40871C59-AB40-471F-8DC3-1F259D862479}, MPEG2 Byte Stream Handler, Preferred
.m4a, {271C3902-6095-4C45-A22F-20091816EE9E}, MPEG4 Byte Stream Handler, Preferred
.m4v, {271C3902-6095-4C45-A22F-20091816EE9E}, MPEG4 Byte Stream Handler, Preferred
.mk3d, {1F9A2C18-D89E-463E-B4F4-BB90152ACC64}, MKV Byte Stream Handler, Preferred
.mka, {1F9A2C18-D89E-463E-B4F4-BB90152ACC64}, MKV Byte Stream Handler, Preferred
.mks, {1F9A2C18-D89E-463E-B4F4-BB90152ACC64}, MKV Byte Stream Handler, Preferred
.mkv, {1F9A2C18-D89E-463E-B4F4-BB90152ACC64}, MKV Byte Stream Handler, Preferred
.mod, {40871C59-AB40-471F-8DC3-1F259D862479}, MPEG2 Byte Stream Handler, Preferred
.mov, {271C3902-6095-4C45-A22F-20091816EE9E}, MPEG4 Byte Stream Handler, Preferred
.mp2v, {40871C59-AB40-471F-8DC3-1F259D862479}, MPEG2 Byte Stream Handler, Preferred
.mp3, {A82E50BA-8E92-41EB-9DF2-433F50EC2993}, MP3 Byte Stream Handler, Preferred
.mp4, {271C3902-6095-4C45-A22F-20091816EE9E}, MPEG4 Byte Stream Handler, Preferred
.mp4v, {271C3902-6095-4C45-A22F-20091816EE9E}, MPEG4 Byte Stream Handler, Preferred
.mpa, {A82E50BA-8E92-41EB-9DF2-433F50EC2993}, MP3 Byte Stream Handler, Preferred
.mpeg, {40871C59-AB40-471F-8DC3-1F259D862479}, MPEG2 Byte Stream Handler, Preferred
.mpg, {40871C59-AB40-471F-8DC3-1F259D862479}, MPEG2 Byte Stream Handler, Preferred
.mts, {40871C59-AB40-471F-8DC3-1F259D862479}, MPEG2 Byte Stream Handler, Preferred
.nsc, {B084785C-DDE0-4D30-8CA8-05A373E185BE}, NSC Byte Stream Handler, Preferred
.sami, {7A56C4CB-D678-4188-85A8-BA2EF68FA10D}, SAMI Byte Stream Handler, Preferred
.smi, {7A56C4CB-D678-4188-85A8-BA2EF68FA10D}, SAMI Byte Stream Handler, Preferred
.tod, {40871C59-AB40-471F-8DC3-1F259D862479}, MPEG2 Byte Stream Handler, Preferred
.ts, {40871C59-AB40-471F-8DC3-1F259D862479}, MPEG2 Byte Stream Handler, Preferred
.tts, {40871C59-AB40-471F-8DC3-1F259D862479}, MPEG2 Byte Stream Handler, Preferred
.uvu, {271C3902-6095-4C45-A22F-20091816EE9E}, MPEG4 Byte Stream Handler, Preferred
.vob, {40871C59-AB40-471F-8DC3-1F259D862479}, MPEG2 Byte Stream Handler, Preferred
.wav, {42C9B9F5-16FC-47EF-AF22-DA05F7C842E3}, WAV Byte Stream Handler, Preferred
.weba, {1F9A2C18-D89E-463E-B4F4-BB90152ACC64}, WEBM Byte Stream Handler, Preferred
.webm, {1F9A2C18-D89E-463E-B4F4-BB90152ACC64}, WEBM Byte Stream Handler, Preferred
.wm, {41457294-644C-4298-A28A-BD69F2C0CF3B}, ASF Byte Stream Handler, Preferred
.wma, {41457294-644C-4298-A28A-BD69F2C0CF3B}, ASF Byte Stream Handler, Preferred
.wmv, {41457294-644C-4298-A28A-BD69F2C0CF3B}, ASF Byte Stream Handler, Preferred
.wtv, {65964407-A5D8-4060-85B0-1CCD63F768E2}, WTV Byte Stream Handler, Preferred
audio/3gpp, {271C3902-6095-4C45-A22F-20091816EE9E}, MPEG4 Byte Stream Handler, Preferred
audio/3gpp2, {271C3902-6095-4C45-A22F-20091816EE9E}, MPEG4 Byte Stream Handler, Preferred
audio/aac, {926F41F7-003E-4382-9E84-9E953BE10562}, ADTS Byte Stream Handler, Preferred
audio/aacp, {926F41F7-003E-4382-9E84-9E953BE10562}, ADTS Byte Stream Handler, Preferred
audio/eac3, {46031BA1-083F-47D9-8369-23C92BDAB2FF}, AC-3 Byte Stream Handler, Preferred
audio/flac, {0E41CFB8-0506-40F4-A516-77CC23642D91}, MF FLAC Media Source ByteStreamHandler, Preferred
audio/L16, {3FFB3B8C-EB99-472B-8902-E1C1B05F07CF}, LPCM Byte Stream Handler, Preferred
audio/mp3, {A82E50BA-8E92-41EB-9DF2-433F50EC2993}, MP3 Byte Stream Handler, Preferred
audio/mp4, {271C3902-6095-4C45-A22F-20091816EE9E}, MPEG4 Byte Stream Handler, Preferred
audio/MP4A-LATM, {271C3902-6095-4C45-A22F-20091816EE9E}, MPEG4 Byte Stream Handler, Preferred
audio/mpa, {A82E50BA-8E92-41EB-9DF2-433F50EC2993}, MP3 Byte Stream Handler, Preferred
audio/mpeg, {A82E50BA-8E92-41EB-9DF2-433F50EC2993}, MP3 Byte Stream Handler, Preferred
audio/mpeg3, {A82E50BA-8E92-41EB-9DF2-433F50EC2993}, MP3 Byte Stream Handler, Preferred
audio/vnd.dlna.adts, {926F41F7-003E-4382-9E84-9E953BE10562}, ADTS Byte Stream Handler, Preferred
audio/vnd.dolby.dd-raw, {46031BA1-083F-47D9-8369-23C92BDAB2FF}, AC-3 Byte Stream Handler, Preferred
audio/wav, {42C9B9F5-16FC-47EF-AF22-DA05F7C842E3}, WAV Byte Stream Handler, Preferred
audio/webm, {1F9A2C18-D89E-463E-B4F4-BB90152ACC64}, WEBM Byte Stream Handler, Preferred
audio/x-aac, {926F41F7-003E-4382-9E84-9E953BE10562}, ADTS Byte Stream Handler, Preferred
audio/x-flac, {0E41CFB8-0506-40F4-A516-77CC23642D91}, MF FLAC Media Source ByteStreamHandler, Preferred
audio/x-m4a, {271C3902-6095-4C45-A22F-20091816EE9E}, MPEG4 Byte Stream Handler, Preferred
audio/x-matroska, {1F9A2C18-D89E-463E-B4F4-BB90152ACC64}, MKV Byte Stream Handler, Preferred
audio/x-mp3, {A82E50BA-8E92-41EB-9DF2-433F50EC2993}, MP3 Byte Stream Handler, Preferred
audio/x-mpeg, {A82E50BA-8E92-41EB-9DF2-433F50EC2993}, MP3 Byte Stream Handler, Preferred
audio/x-ms-wma, {41457294-644C-4298-A28A-BD69F2C0CF3B}, ASF Byte Stream Handler, Preferred
audio/x-wav, {42C9B9F5-16FC-47EF-AF22-DA05F7C842E3}, WAV Byte Stream Handler, Preferred
video/3gpp, {271C3902-6095-4C45-A22F-20091816EE9E}, MPEG4 Byte Stream Handler, Preferred
video/3gpp2, {271C3902-6095-4C45-A22F-20091816EE9E}, MPEG4 Byte Stream Handler, Preferred
video/avi, {7AFA253E-F823-42F6-A5D9-714BDE467412}, AVI Byte Stream Handler, Preferred
video/mp4, {271C3902-6095-4C45-A22F-20091816EE9E}, MPEG4 Byte Stream Handler, Preferred
video/mpeg, {40871C59-AB40-471F-8DC3-1F259D862479}, MPEG2 Byte Stream Handler, Preferred
video/msvideo, {7AFA253E-F823-42F6-A5D9-714BDE467412}, AVI Byte Stream Handler, Preferred
video/vnd.dece.mp4, {271C3902-6095-4C45-A22F-20091816EE9E}, MPEG4 Byte Stream Handler, Preferred
video/vnd.dlna.mpeg-tts, {40871C59-AB40-471F-8DC3-1F259D862479}, MPEG2 Byte Stream Handler, Preferred
video/webm, {1F9A2C18-D89E-463E-B4F4-BB90152ACC64}, WEBM Byte Stream Handler, Preferred
video/x-m4v, {271C3902-6095-4C45-A22F-20091816EE9E}, MPEG4 Byte Stream Handler, Preferred
video/x-matroska, {1F9A2C18-D89E-463E-B4F4-BB90152ACC64}, MKV Byte Stream Handler, Preferred
video/x-ms-asf, {41457294-644C-4298-A28A-BD69F2C0CF3B}, ASF Byte Stream Handler, Preferred
video/x-ms-wm, {41457294-644C-4298-A28A-BD69F2C0CF3B}, ASF Byte Stream Handler, Preferred
video/x-ms-wmv, {41457294-644C-4298-A28A-BD69F2C0CF3B}, ASF Byte Stream Handler, Preferred
video/x-msvideo, {7AFA253E-F823-42F6-A5D9-714BDE467412}, AVI Byte Stream Handler, Preferred


--------------------------------
Media Foundation Scheme Handlers
--------------------------------

[HKEY_LOCAL_MACHINE\Software\Microsoft\Windows Media Foundation\SchemeHandlers]
[HKEY_LOCAL_MACHINE\Software\Classes\MediaFoundation\MediaSources\Preferred]

<URL type>, <handler CLSID>, <brief description>[, Preferred]

file:, {477EC299-1421-4BDD-971F-7CCB933F21AD}, File Scheme Handler, Preferred
http:, {44CB442B-9DA9-49DF-B3FD-023777B16E50}, Http Scheme Handler
http:, {9EC4B4F9-3029-45AD-947B-344DE2A249E2}, Urlmon Scheme Handler
http:, {E9F4EBAB-D97B-463E-A2B1-C54EE3F9414D}, Net Scheme Handler, Preferred
httpd:, {44CB442B-9DA9-49DF-B3FD-023777B16E50}, Http Scheme Handler, Preferred
https:, {37A61C8B-7F8E-4D08-B12B-248D73E9AB4F}, Secure Http Scheme Handler, Preferred
httpsd:, {37A61C8B-7F8E-4D08-B12B-248D73E9AB4F}, Secure Http Scheme Handler, Preferred
httpt:, {E9F4EBAB-D97B-463E-A2B1-C54EE3F9414D}, Net Scheme Handler, Preferred
httpu:, {E9F4EBAB-D97B-463E-A2B1-C54EE3F9414D}, Net Scheme Handler, Preferred
mcast:, {E9F4EBAB-D97B-463E-A2B1-C54EE3F9414D}, Net Scheme Handler, Preferred
mcrecv:, {FA6D33D4-9405-4BA5-9983-12604AC8E77A}, Miracast Sink Scheme Handler, Preferred
mms:, {E9F4EBAB-D97B-463E-A2B1-C54EE3F9414D}, Net Scheme Handler, Preferred
ms-appdata:, {CFC81939-3886-4ACF-9692-DA58037AE716}, MsAppData Scheme Handler, Preferred
ms-appx-web:, {8DB0224B-3D65-4F6F-8E12-BEB4B78B8974}, MsAppxWeb Scheme Handler, Preferred
ms-appx:, {8DB0224B-3D65-4F6F-8E12-BEB4B78B8974}, MsAppx Scheme Handler, Preferred
ms-winsoundevent:, {F79A6BF9-7415-4CF3-AE10-4559509ABC3C}, Sound Event Scheme Handler, Preferred
rtsp:, {E9F4EBAB-D97B-463E-A2B1-C54EE3F9414D}, Net Scheme Handler, Preferred
rtspt:, {E9F4EBAB-D97B-463E-A2B1-C54EE3F9414D}, Net Scheme Handler, Preferred
rtspu:, {E9F4EBAB-D97B-463E-A2B1-C54EE3F9414D}, Net Scheme Handler, Preferred
sdp:, {E9F4EBAB-D97B-463E-A2B1-C54EE3F9414D}, Net Scheme Handler, Preferred


-------------------------------------
Preferred Media Foundation Transforms
-------------------------------------

[HKEY_LOCAL_MACHINE\Software\Classes\MediaFoundation\Transforms\Preferred]

<media subtype GUID>, [<transform friendly name>, ]<transform CLSID>

{E06D802C-DB46-11CF-B4D1-00805F6CBBEA}, Microsoft Dolby Digital Plus Decoder MFT, {177C0AFE-900B-48D4-9E4C-57ADD250B3D4}
MEDIASUBTYPE_DOLBY_DDPLUS, Microsoft Dolby Digital Plus Decoder MFT, {177C0AFE-900B-48D4-9E4C-57ADD250B3D4}
{00002000-0000-0010-8000-00AA00389B71}, Microsoft Dolby Digital Plus Decoder MFT, {177C0AFE-900B-48D4-9E4C-57ADD250B3D4}
{EB27CEC4-163E-4CA3-8B74-8E25F91B517E}, Dolby TrueHD IEC-61937 converter MFT, {CF5EEEDF-0E92-4B3B-A161-BD0FFE545E4B}
MFVideoFormat_MPEG2, Microsoft MPEG Video Decoder MFT, {2D709E52-123F-49B5-9CBC-9AF5CDE28FB9}
{A61AC364-AD0E-4744-89FF-213CE0DF8804}, DTS IEC-61937 converter MFT, {D035E24C-C877-42D7-A795-2A8A339B472F}
{A2E58EB7-0FA9-48BB-A40C-FA0E156D0645}, DTS IEC-61937 converter MFT, {D035E24C-C877-42D7-A795-2A8A339B472F}
{7634706D-0000-0010-8000-00AA00389B71}, Mpeg4s Decoder MFT, CLSID_CMpeg4sDecMFT
{73616D72-767A-494D-B478-F29D25DC9037}, MS AMRNB Decoder MFT, {265011AE-5481-4F77-A295-ABB6FFE8D63E}
MEDIASUBTYPE_mp4s, Mpeg4s Decoder MFT, CLSID_CMpeg4sDecMFT
MFVideoFormat_DVSL, DV Decoder MFT, {404A6DE5-D4D6-4260-9BC7-5A6CBD882432}
MFVideoFormat_DVSD, DV Decoder MFT, {404A6DE5-D4D6-4260-9BC7-5A6CBD882432}
MFVideoFormat_DVHD, DV Decoder MFT, {404A6DE5-D4D6-4260-9BC7-5A6CBD882432}
{63616C61-0000-0010-8000-00AA00389B71}, Microsoft ALAC Audio Decoder MFT, {C0CD7D12-31FC-4BBC-B363-7322EE3E1879}
MFVideoFormat_MP4V, Mpeg4s Decoder MFT, CLSID_CMpeg4sDecMFT
MFVideoFormat_MP4S, Mpeg4s Decoder MFT, CLSID_CMpeg4sDecMFT
{53314356-0000-0010-8000-00AA00389B71}, WMVideo Decoder MFT, CLSID_CWMVDecMediaObject
MEDIASUBTYPE_WMVR, WMVideo Decoder MFT, CLSID_CWMVDecMediaObject
MEDIASUBTYPE_WMVP, WMVideo Decoder MFT, CLSID_CWMVDecMediaObject
MFVideoFormat_MJPG, MJPEG Decoder MFT, {CB17E772-E1CC-4633-8450-5617AF577905}
MEDIASUBTYPE_WMVA, WMVideo Decoder MFT, CLSID_CWMVDecMediaObject
{3F40F4F0-5622-4FF8-B6D8-A17A584BEE5E}, Microsoft H264 Video Decoder MFT, CLSID_CMSH264DecoderMFT
MEDIASUBTYPE_mpg4, Mpeg4 Decoder MFT, CLSID_CMpeg4DecMediaObject
MEDIASUBTYPE_MPG4, Mpeg4 Decoder MFT, CLSID_CMpeg4DecMediaObject
MFVideoFormat_H264, Microsoft H264 Video Decoder MFT, CLSID_CMSH264DecoderMFT
MFVideoFormat_WMV3, WMVideo Decoder MFT, CLSID_CWMVDecMediaObject
{33363248-0000-0010-8000-00AA00389B71}, Mpeg4s Decoder MFT, CLSID_CMpeg4sDecMFT
MEDIASUBTYPE_mp43, Mpeg43 Decoder MFT, CLSID_CMpeg43DecMediaObject
MFVideoFormat_MP43, Mpeg43 Decoder MFT, CLSID_CMpeg43DecMediaObject
MEDIASUBTYPE_m4s2, Mpeg4s Decoder MFT, CLSID_CMpeg4sDecMFT
MFVideoFormat_WMV2, WMVideo Decoder MFT, CLSID_CWMVDecMediaObject
MFVideoFormat_MSS2, WMV Screen decoder MFT, CLSID_CMSSCDecMediaObject
MFVideoFormat_M4S2, Mpeg4s Decoder MFT, CLSID_CMpeg4sDecMFT
MEDIASUBTYPE_WVP2, WMVideo Decoder MFT, CLSID_CWMVDecMediaObject
MEDIASUBTYPE_mp42, Mpeg4 Decoder MFT, CLSID_CMpeg4DecMediaObject
MEDIASUBTYPE_MP42, Mpeg4 Decoder MFT, CLSID_CMpeg4DecMediaObject
MFVideoFormat_WMV1, WMVideo Decoder MFT, CLSID_CWMVDecMediaObject
MFVideoFormat_MSS1, WMV Screen decoder MFT, CLSID_CMSSCDecMediaObject
MFVideoFormat_MPG1, Microsoft MPEG Video Decoder MFT, {2D709E52-123F-49B5-9CBC-9AF5CDE28FB9}
MFVideoFormat_WVC1, WMVideo Decoder MFT, CLSID_CWMVDecMediaObject
{30395056-0000-0010-8000-00AA00389B71}, Microsoft WebM MF VP8 Decoder Transform, {E3AAF548-C9A4-4C6E-234D-5ADA374B0000}
{30385056-0000-0010-8000-00AA00389B71}, Microsoft WebM MF VP8 Decoder Transform, {E3AAF548-C9A4-4C6E-234D-5ADA374B0000}
MFVideoFormat_DVC, DV Decoder MFT, {404A6DE5-D4D6-4260-9BC7-5A6CBD882432}
{0000F1AC-0000-0010-8000-00AA00389B71}, Microsoft FLAC Audio Decoder MFT, {6B0B3E6B-A2C5-4514-8055-AFE8A95242D9}
{00007361-0000-0010-8000-00AA00389B71}, MS AMRNB Decoder MFT, {265011AE-5481-4F77-A295-ABB6FFE8D63E}
{0000704F-0000-0010-8000-00AA00389B71}, Microsoft Opus Audio Decoder MFT, {63E17C10-2D43-4C42-8FE3-8D8B63E46A6A}
{00006C61-0000-0010-8000-00AA00389B71}, Microsoft ALAC Audio Decoder MFT, {C0CD7D12-31FC-4BBC-B363-7322EE3E1879}
{00002001-0000-0010-8000-00AA00389B71}, DTS IEC-61937 converter MFT, {D035E24C-C877-42D7-A795-2A8A339B472F}
MFAudioFormat_AAC, Microsoft AAC Audio Decoder MFT, CLSID_CMSAACDecMFT
MFAudioFormat_ADTS, Microsoft AAC Audio Decoder MFT, CLSID_CMSAACDecMFT
MFAudioFormat_WMAudio_Lossless, WMAudio Decoder MFT, CLSID_CWMADecMediaObject
MFAudioFormat_WMAudioV9, WMAudio Decoder MFT, CLSID_CWMADecMediaObject
MFAudioFormat_WMAudioV8, WMAudio Decoder MFT, CLSID_CWMADecMediaObject
MEDIASUBTYPE_MSAUDIO1, WMAudio Decoder MFT, CLSID_CWMADecMediaObject
MEDIASUBTYPE_RAW_AAC1, Microsoft AAC Audio Decoder MFT, CLSID_CMSAACDecMFT
MFAudioFormat_MP3, MP3 Decoder MFT, CLSID_CMP3DecMediaObject
MFAudioFormat_MPEG, Microsoft MPEG Audio Decoder MFT, {70707B39-B2CA-4015-ABEA-F8447D22D88B}
{00000031-0000-0010-8000-00AA00389B71}, GSM ACM Wrapper MFT, {4A76B469-7B66-4DD4-BA2D-DDF244C766DC}
{00000011-0000-0010-8000-00AA00389B71}, IMA ADPCM ACM Wrapper MFT, {A16E1BFF-A80D-48AD-AECD-A35C005685FE}
WMMEDIASUBTYPE_WMSP2, WMSpeech Decoder DMO, CLSID_CWMSPDecMediaObject
MFAudioFormat_MSP1, WMSpeech Decoder DMO, CLSID_CWMSPDecMediaObject
KSDATAFORMAT_SUBTYPE_MULAW, G711 Wrapper MFT, {92B66080-5E2D-449E-90C4-C41F268E5514}
{00000006-0000-0010-8000-00AA00389B71}, A-law Wrapper MFT, {36CB6E0C-78C1-42B2-9943-846262F31786}
KSDATAFORMAT_SUBTYPE_ADPCM, ADPCM ACM Wrapper MFT, {CA34FE0A-5722-43AD-AF23-05F7650257DD}


-------------------------------------
Disabled Media Foundation Transforms
-------------------------------------

[HKEY_LOCAL_MACHINE\Software\Classes\MediaFoundation\Transforms\DoNotUse]

<transform CLSID>



------------------------
Disabled Media Sources
------------------------

[HKEY_LOCAL_MACHINE\Software\Classes\MediaFoundation\MediaSources\DoNotUse]

<media source CLSID>


---------------
EVR Power Information
---------------
Current Setting: {5C67A112-A4C9-483F-B4A7-1D473BECAFDC} (Quality) 
  Quality Flags: 2576
    Enabled:
    Force throttling
    Allow half deinterlace
    Allow scaling
    Decode Power Usage: 100
  Balanced Flags: 1424
    Enabled:
    Force throttling
    Allow batching
    Force half deinterlace
    Force scaling
    Decode Power Usage: 50
  PowerFlags: 1424
    Enabled:
    Force throttling
    Allow batching
    Force half deinterlace
    Force scaling
    Decode Power Usage: 0

---------------
Diagnostics
---------------

Windows Error Reporting:
+++ WER0 +++:
Fault bucket 1645946141492248729, type 4
Event Name: APPCRASH
Response: Not available
Cab Id: 0

Problem signature:
P1: firefox.exe
P2: 69.0.2.7213
P3: 5d93fa4c
P4: ntdll.dll
P5: 10.0.17134.799
P6: 7f828745
P7: c0000005
P8: 000000000000d4cc
P9: 
P10: 


+++ WER1 +++:
Fault bucket 2101125776342243836, type 5
Event Name: FaultTolerantHeap
Response: Not available
Cab Id: 0

Problem signature:
P1: firefox.exe
P2: 69.0.2.7213
P3: 5D93FA4C
P4: ffffbaad
P5: 
P6: 
P7: 
P8: 
P9: 
P10: 


+++ WER2 +++:
Fault bucket 1641721802031816997, type 5
Event Name: CLR20r3
Response: Not available
Cab Id: 0

Problem signature:
P1: SourceTree.exe
P2: 3.1.2.3027
P3: 5c90e109
P4: WindowsBase
P5: 4.8.4018.0
P6: 5d4a6b46
P7: 107c
P8: 1e
P9: System.ArgumentNullException
P10: 


+++ WER3 +++:
Fault bucket 1216887687151769062, type 5
Event Name: CLR20r3
Response: Not available
Cab Id: 0

Problem signature:
P1: SourceTree.exe
P2: 3.1.2.3027
P3: 5c90e109
P4: mscorlib
P5: 4.8.4018.0
P6: 5d4a6683
P7: 5d21
P8: 26
P9: FOPL4MYEJCHQ4QUDLY5M1JG1EE1KJYWU
P10: 


+++ WER4 +++:
Fault bucket 2069031672927380647, type 5
Event Name: RADAR_PRE_LEAK_64
Response: Not available
Cab Id: 0

Problem signature:
P1: Microsoft.Photos.exe
P2: 2019.19071.17920.0
P3: 10.0.17134.2.0.0
P4: 
P5: 
P6: 
P7: 
P8: 
P9: 
P10: 


+++ WER5 +++:
Fault bucket 125730739576, type 5
Event Name: PerfWatsonVS12Data
Response: Not available
Cab Id: 1579378049188724209

Problem signature:
P1: PerfWatsonTcdb
P2: 0
P3: 0
P4: 0
P5: 0
P6: 
P7: 
P8: 
P9: 
P10: 


+++ WER6 +++:
Fault bucket 1216887687151769062, type 5
Event Name: CLR20r3
Response: Not available
Cab Id: 0

Problem signature:
P1: SourceTree.exe
P2: 3.1.2.3027
P3: 5c90e109
P4: mscorlib
P5: 4.8.4018.0
P6: 5d4a6683
P7: 5d21
P8: 26
P9: FOPL4MYEJCHQ4QUDLY5M1JG1EE1KJYWU
P10: 


+++ WER7 +++:
Fault bucket 125730739576, type 5
Event Name: PerfWatsonVS12Data
Response: Not available
Cab Id: 1666990329502051323

Problem signature:
P1: PerfWatsonTcdb
P2: 0
P3: 0
P4: 0
P5: 0
P6: 
P7: 
P8: 
P9: 
P10: 


+++ WER8 +++:
Fault bucket 125730739576, type 5
Event Name: PerfWatsonVS12Data
Response: Not available
Cab Id: 1343954973723848796

Problem signature:
P1: PerfWatsonTcdb
P2: 0
P3: 0
P4: 0
P5: 0
P6: 
P7: 
P8: 
P9: 
P10: 


+++ WER9 +++:
Fault bucket 125730739576, type 5
Event Name: PerfWatsonVS12Data
Response: Not available
Cab Id: 1755286492768821117

Problem signature:
P1: PerfWatsonTcdb
P2: 0
P3: 0
P4: 0
P5: 0
P6: 
P7: 
P8: 
P9: 
P10: 


